<?xml version="1.0" encoding="UTF-8"?>
<!DOCTYPE svg PUBLIC '-//W3C//DTD SVG 1.0//EN'
          'http://www.w3.org/TR/2001/REC-SVG-20010904/DTD/svg10.dtd'>
<svg xmlns:xlink="http://www.w3.org/1999/xlink" style="fill-opacity:1; color-rendering:auto; color-interpolation:auto; text-rendering:auto; stroke:black; stroke-linecap:square; stroke-miterlimit:10; shape-rendering:auto; stroke-opacity:1; fill:black; stroke-dasharray:none; font-weight:normal; stroke-width:1; font-family:&apos;Dialog&apos;; font-style:normal; stroke-linejoin:miter; font-size:12; stroke-dashoffset:0; image-rendering:auto;" width="1304" height="768" xmlns="http://www.w3.org/2000/svg"
><!--Generated by the Batik Graphics2D SVG Generator--><defs id="genericDefs"
  /><g
  ><defs id="defs1"
    ><clipPath clipPathUnits="userSpaceOnUse" id="clipPath1"
      ><path d="M0 0 L1304 0 L1304 768 L0 768 L0 0 Z"
      /></clipPath
      ><clipPath clipPathUnits="userSpaceOnUse" id="clipPath2"
      ><path d="M-89.62 -75.0938 L888.38 -75.0938 L888.38 500.9062 L-89.62 500.9062 L-89.62 -75.0938 Z"
      /></clipPath
      ><clipPath clipPathUnits="userSpaceOnUse" id="clipPath3"
      ><path d="M-20 -28 L958 -28 L958 548 L-20 548 L-20 -28 Z"
      /></clipPath
      ><clipPath clipPathUnits="userSpaceOnUse" id="clipPath4"
      ><path d="M-414.62 -240.0938 L563.38 -240.0938 L563.38 335.9062 L-414.62 335.9062 L-414.62 -240.0938 Z"
      /></clipPath
      ><clipPath clipPathUnits="userSpaceOnUse" id="clipPath5"
      ><path d="M-497.12 -279.0938 L480.88 -279.0938 L480.88 296.9062 L-497.12 296.9062 L-497.12 -279.0938 Z"
      /></clipPath
      ><clipPath clipPathUnits="userSpaceOnUse" id="clipPath6"
      ><path d="M-457.12 -381.0938 L520.88 -381.0938 L520.88 194.9062 L-457.12 194.9062 L-457.12 -381.0938 Z"
      /></clipPath
      ><clipPath clipPathUnits="userSpaceOnUse" id="clipPath7"
      ><path d="M-96.62 -340.0938 L881.38 -340.0938 L881.38 235.9062 L-96.62 235.9062 L-96.62 -340.0938 Z"
      /></clipPath
      ><clipPath clipPathUnits="userSpaceOnUse" id="clipPath8"
      ><path d="M-35.62 -88.0938 L942.38 -88.0938 L942.38 487.9062 L-35.62 487.9062 L-35.62 -88.0938 Z"
      /></clipPath
      ><clipPath clipPathUnits="userSpaceOnUse" id="clipPath9"
      ><path d="M-121 -114.0938 L857 -114.0938 L857 461.9062 L-121 461.9062 L-121 -114.0938 Z"
      /></clipPath
      ><clipPath clipPathUnits="userSpaceOnUse" id="clipPath10"
      ><path d="M-793.62 -332.0938 L184.38 -332.0938 L184.38 243.9062 L-793.62 243.9062 L-793.62 -332.0938 Z"
      /></clipPath
      ><clipPath clipPathUnits="userSpaceOnUse" id="clipPath11"
      ><path d="M-356.62 -88.0938 L621.38 -88.0938 L621.38 487.9062 L-356.62 487.9062 L-356.62 -88.0938 Z"
      /></clipPath
      ><clipPath clipPathUnits="userSpaceOnUse" id="clipPath12"
      ><path d="M-576.8974 -121.0938 L401.1026 -121.0938 L401.1026 454.9062 L-576.8974 454.9062 L-576.8974 -121.0938 Z"
      /></clipPath
      ><clipPath clipPathUnits="userSpaceOnUse" id="clipPath13"
      ><path d="M-392.12 -120.0938 L585.88 -120.0938 L585.88 455.9062 L-392.12 455.9062 L-392.12 -120.0938 Z"
      /></clipPath
    ></defs
    ><g style="fill:white; stroke:white;"
    ><rect x="0" y="0" width="1304" style="clip-path:url(#clipPath1); stroke:none;" height="768"
    /></g
    ><g style="text-rendering:geometricPrecision; shape-rendering:crispEdges;" transform="scale(1.3333,1.3333) translate(89.62,75.0938)"
    ><rect x="-79.62" y="-65.0938" width="957.8974" style="fill:none; clip-path:url(#clipPath2);" height="555.6322"
      /><line x1="-33.62" x2="-33.62" y1="-64.0938" style="clip-path:url(#clipPath2); fill:none; text-rendering:optimizeLegibility; shape-rendering:auto;" y2="-50"
      /><line x1="-33.62" x2="-43.62" y1="-50" style="clip-path:url(#clipPath2); fill:none; text-rendering:optimizeLegibility; shape-rendering:auto;" y2="-40"
      /><line x1="-43.62" x2="-79.62" y1="-40" style="clip-path:url(#clipPath2); fill:none; text-rendering:optimizeLegibility; shape-rendering:auto;" y2="-40"
    /></g
    ><g style="text-rendering:optimizeLegibility; font-weight:bold; font-family:sans-serif;" transform="matrix(1.3333,0,0,1.3333,119.4933,100.125) translate(-69.62,-47.0938)"
    ><path d="M0.8125 -6.2188 L2.3438 -6.2188 L2.3438 -5.3125 Q2.6562 -5.7812 3.1641 -6.0703 Q3.6719 -6.3594 4.2969 -6.3594 Q5.375 -6.3594 6.1328 -5.5156 Q6.8906 -4.6719 6.8906 -3.1406 Q6.8906 -1.5938 6.125 -0.7266 Q5.3594 0.1406 4.2812 0.1406 Q3.7656 0.1406 3.3438 -0.0625 Q2.9219 -0.2656 2.4688 -0.7656 L2.4688 2.375 L0.8125 2.375 L0.8125 -6.2188 ZM2.4375 -3.2188 Q2.4375 -2.1719 2.8594 -1.6719 Q3.2812 -1.1719 3.875 -1.1719 Q4.4531 -1.1719 4.8281 -1.6328 Q5.2031 -2.0938 5.2031 -3.1406 Q5.2031 -4.1094 4.8125 -4.5859 Q4.4219 -5.0625 3.8438 -5.0625 Q3.2344 -5.0625 2.8359 -4.5938 Q2.4375 -4.125 2.4375 -3.2188 ZM8.127 0 L8.127 -8.5938 L9.7832 -8.5938 L9.7832 -4.0312 L11.7051 -6.2188 L13.7363 -6.2188 L11.6113 -3.9531 L13.8926 0 L12.1113 0 L10.5488 -2.7969 L9.7832 -2 L9.7832 0 L8.127 0 ZM14.707 0.4062 L16.5977 0.6406 Q16.6445 0.9688 16.8164 1.0938 Q17.0508 1.2656 17.5508 1.2656 Q18.1914 1.2656 18.5195 1.0781 Q18.7383 0.9375 18.8477 0.6562 Q18.9258 0.4531 18.9258 -0.0938 L18.9258 -1.0156 Q18.1758 0 17.0508 0 Q15.8008 0 15.0664 -1.0625 Q14.5039 -1.9062 14.5039 -3.1406 Q14.5039 -4.7188 15.2539 -5.5391 Q16.0039 -6.3594 17.1289 -6.3594 Q18.2695 -6.3594 19.0195 -5.3438 L19.0195 -6.2188 L20.5664 -6.2188 L20.5664 -0.6406 Q20.5664 0.4688 20.3867 1.0078 Q20.207 1.5469 19.8789 1.8594 Q19.5508 2.1719 19.0039 2.3516 Q18.457 2.5312 17.6133 2.5312 Q16.0352 2.5312 15.3711 1.9844 Q14.707 1.4375 14.707 0.6094 Q14.707 0.5312 14.707 0.4062 ZM16.1914 -3.2344 Q16.1914 -2.25 16.5742 -1.7891 Q16.957 -1.3281 17.5195 -1.3281 Q18.1133 -1.3281 18.5352 -1.8047 Q18.957 -2.2812 18.957 -3.2031 Q18.957 -4.1719 18.5586 -4.6406 Q18.1602 -5.1094 17.5508 -5.1094 Q16.957 -5.1094 16.5742 -4.6484 Q16.1914 -4.1875 16.1914 -3.2344 Z" style="stroke:none; clip-path:url(#clipPath3);"
    /></g
    ><g transform="matrix(1.3333,0,0,1.3333,119.4933,100.125)" style="fill:rgb(255,255,204); text-rendering:optimizeLegibility; font-family:sans-serif; stroke:rgb(255,255,204); font-weight:bold; stroke-width:2;"
    ><polygon style="stroke:none; clip-path:url(#clipPath2);" points=" 315 148 319 144 535 144 535 375 531 379 315 379"
      /><polygon style="fill:none; clip-path:url(#clipPath2); stroke:black;" points=" 315 148 319 144 535 144 535 375 531 379 315 379"
      /><line x1="531" x2="534" y1="148" style="clip-path:url(#clipPath2); fill:none; stroke:black;" y2="145"
      /><line x1="315" x2="531" y1="148" style="clip-path:url(#clipPath2); fill:none; stroke:black;" y2="148"
      /><line x1="531" x2="531" y1="148" style="clip-path:url(#clipPath2); fill:none; stroke:black;" y2="379"
    /></g
    ><g style="text-rendering:optimizeLegibility; stroke-width:2; font-family:sans-serif;" transform="matrix(1.3333,0,0,1.3333,119.4933,100.125) translate(325,165)"
    ><path d="M-0.0156 0 L3.2812 -8.5938 L4.5 -8.5938 L8.0156 0 L6.7344 0 L5.7188 -2.6094 L2.1406 -2.6094 L1.1875 0 L-0.0156 0 ZM2.4688 -3.5312 L5.375 -3.5312 L4.4844 -5.9062 Q4.0625 -6.9844 3.875 -7.6875 Q3.7031 -6.8594 3.4062 -6.0469 L2.4688 -3.5312 ZM8.8008 2.3906 L8.8008 -6.2188 L9.7539 -6.2188 L9.7539 -5.4219 Q10.0977 -5.8906 10.5273 -6.125 Q10.957 -6.3594 11.5664 -6.3594 Q12.3633 -6.3594 12.9727 -5.9531 Q13.582 -5.5469 13.8867 -4.7969 Q14.1914 -4.0469 14.1914 -3.1562 Q14.1914 -2.2031 13.8555 -1.4375 Q13.5195 -0.6719 12.8633 -0.2656 Q12.207 0.1406 11.4883 0.1406 Q10.957 0.1406 10.5352 -0.0859 Q10.1133 -0.3125 9.8477 -0.6406 L9.8477 2.3906 L8.8008 2.3906 ZM9.7539 -3.0781 Q9.7539 -1.875 10.2383 -1.3047 Q10.7227 -0.7344 11.4102 -0.7344 Q12.1133 -0.7344 12.6133 -1.3281 Q13.1133 -1.9219 13.1133 -3.1719 Q13.1133 -4.3594 12.6289 -4.9453 Q12.1445 -5.5312 11.457 -5.5312 Q10.7852 -5.5312 10.2695 -4.9062 Q9.7539 -4.2812 9.7539 -3.0781 ZM15.4746 2.3906 L15.4746 -6.2188 L16.4277 -6.2188 L16.4277 -5.4219 Q16.7715 -5.8906 17.2012 -6.125 Q17.6309 -6.3594 18.2402 -6.3594 Q19.0371 -6.3594 19.6465 -5.9531 Q20.2559 -5.5469 20.5605 -4.7969 Q20.8652 -4.0469 20.8652 -3.1562 Q20.8652 -2.2031 20.5293 -1.4375 Q20.1934 -0.6719 19.5371 -0.2656 Q18.8809 0.1406 18.1621 0.1406 Q17.6309 0.1406 17.209 -0.0859 Q16.7871 -0.3125 16.5215 -0.6406 L16.5215 2.3906 L15.4746 2.3906 ZM16.4277 -3.0781 Q16.4277 -1.875 16.9121 -1.3047 Q17.3965 -0.7344 18.084 -0.7344 Q18.7871 -0.7344 19.2871 -1.3281 Q19.7871 -1.9219 19.7871 -3.1719 Q19.7871 -4.3594 19.3027 -4.9453 Q18.8184 -5.5312 18.1309 -5.5312 Q17.459 -5.5312 16.9434 -4.9062 Q16.4277 -4.2812 16.4277 -3.0781 ZM25.2324 -2.7656 L26.2949 -2.8594 Q26.373 -2.2031 26.6543 -1.7969 Q26.9355 -1.3906 27.5215 -1.1328 Q28.1074 -0.875 28.8418 -0.875 Q29.4824 -0.875 29.9824 -1.0703 Q30.4824 -1.2656 30.7246 -1.6016 Q30.9668 -1.9375 30.9668 -2.3281 Q30.9668 -2.7344 30.7324 -3.0391 Q30.498 -3.3438 29.9668 -3.5469 Q29.6074 -3.6875 28.4277 -3.9688 Q27.248 -4.25 26.7793 -4.5 Q26.1543 -4.8281 25.8574 -5.3047 Q25.5605 -5.7812 25.5605 -6.375 Q25.5605 -7.0156 25.9277 -7.5859 Q26.2949 -8.1562 27.0059 -8.4453 Q27.7168 -8.7344 28.5762 -8.7344 Q29.5293 -8.7344 30.2637 -8.4297 Q30.998 -8.125 31.3887 -7.5234 Q31.7793 -6.9219 31.8105 -6.1719 L30.7168 -6.0938 Q30.623 -6.9062 30.1152 -7.3203 Q29.6074 -7.7344 28.623 -7.7344 Q27.5918 -7.7344 27.123 -7.3594 Q26.6543 -6.9844 26.6543 -6.4531 Q26.6543 -5.9844 26.9824 -5.6875 Q27.3105 -5.3906 28.6934 -5.0781 Q30.0762 -4.7656 30.5918 -4.5312 Q31.3418 -4.1719 31.7012 -3.6484 Q32.0605 -3.125 32.0605 -2.4219 Q32.0605 -1.7344 31.6699 -1.1328 Q31.2793 -0.5312 30.5449 -0.1953 Q29.8105 0.1406 28.8887 0.1406 Q27.7168 0.1406 26.9277 -0.1953 Q26.1387 -0.5312 25.6934 -1.2188 Q25.248 -1.9062 25.2324 -2.7656 ZM37.7363 -2 L38.8301 -1.875 Q38.5801 -0.9219 37.877 -0.3906 Q37.1738 0.1406 36.0957 0.1406 Q34.7363 0.1406 33.9316 -0.7031 Q33.127 -1.5469 33.127 -3.0625 Q33.127 -4.625 33.9395 -5.4922 Q34.752 -6.3594 36.0332 -6.3594 Q37.2832 -6.3594 38.0723 -5.5156 Q38.8613 -4.6719 38.8613 -3.125 Q38.8613 -3.0312 38.8613 -2.8438 L34.2207 -2.8438 Q34.2832 -1.8125 34.7988 -1.2734 Q35.3145 -0.7344 36.0957 -0.7344 Q36.6738 -0.7344 37.0879 -1.0391 Q37.502 -1.3438 37.7363 -2 ZM34.2832 -3.7031 L37.752 -3.7031 Q37.6895 -4.5 37.3613 -4.8906 Q36.8457 -5.5 36.0488 -5.5 Q35.3145 -5.5 34.8223 -5.0156 Q34.3301 -4.5312 34.2832 -3.7031 ZM40.1445 0 L40.1445 -6.2188 L41.0977 -6.2188 L41.0977 -5.2812 Q41.457 -5.9375 41.7617 -6.1484 Q42.0664 -6.3594 42.4414 -6.3594 Q42.9727 -6.3594 43.5195 -6.0312 L43.1602 -5.0469 Q42.7695 -5.2812 42.3945 -5.2812 Q42.0352 -5.2812 41.7617 -5.0703 Q41.4883 -4.8594 41.3789 -4.4844 Q41.1914 -3.9219 41.1914 -3.2656 L41.1914 0 L40.1445 0 ZM45.875 0 L43.5156 -6.2188 L44.625 -6.2188 L45.9688 -2.5 Q46.1719 -1.8906 46.3594 -1.25 Q46.5 -1.7344 46.75 -2.4219 L48.1406 -6.2188 L49.2188 -6.2188 L46.8594 0 L45.875 0 ZM54.4062 -2 L55.5 -1.875 Q55.25 -0.9219 54.5469 -0.3906 Q53.8438 0.1406 52.7656 0.1406 Q51.4062 0.1406 50.6016 -0.7031 Q49.7969 -1.5469 49.7969 -3.0625 Q49.7969 -4.625 50.6094 -5.4922 Q51.4219 -6.3594 52.7031 -6.3594 Q53.9531 -6.3594 54.7422 -5.5156 Q55.5312 -4.6719 55.5312 -3.125 Q55.5312 -3.0312 55.5312 -2.8438 L50.8906 -2.8438 Q50.9531 -1.8125 51.4688 -1.2734 Q51.9844 -0.7344 52.7656 -0.7344 Q53.3438 -0.7344 53.7578 -1.0391 Q54.1719 -1.3438 54.4062 -2 ZM50.9531 -3.7031 L54.4219 -3.7031 Q54.3594 -4.5 54.0312 -4.8906 Q53.5156 -5.5 52.7188 -5.5 Q51.9844 -5.5 51.4922 -5.0156 Q51 -4.5312 50.9531 -3.7031 ZM56.8145 0 L56.8145 -6.2188 L57.7676 -6.2188 L57.7676 -5.2812 Q58.127 -5.9375 58.4316 -6.1484 Q58.7363 -6.3594 59.1113 -6.3594 Q59.6426 -6.3594 60.1895 -6.0312 L59.8301 -5.0469 Q59.4395 -5.2812 59.0645 -5.2812 Q58.7051 -5.2812 58.4316 -5.0703 Q58.1582 -4.8594 58.0488 -4.4844 Q57.8613 -3.9219 57.8613 -3.2656 L57.8613 0 L56.8145 0 Z" style="stroke:none; clip-path:url(#clipPath4);"
    /></g
    ><g transform="matrix(1.3333,0,0,1.3333,119.4933,100.125)" style="fill:rgb(255,255,204); text-rendering:geometricPrecision; font-family:sans-serif; shape-rendering:crispEdges; stroke:rgb(255,255,204); stroke-width:2;"
    ><rect x="355" y="187" width="140" style="clip-path:url(#clipPath2); stroke:none;" height="46.1875"
      /><rect x="355" y="187" width="140" style="clip-path:url(#clipPath2); fill:none; stroke:black;" height="46.1875"
      /><rect x="477" y="193" width="12" style="clip-path:url(#clipPath2); stroke:none; stroke-width:1;" height="14"
      /><rect x="477" y="193" width="12" style="clip-path:url(#clipPath2); fill:none; stroke:black; stroke-width:1;" height="14"
      /><rect x="475" y="201" width="6" style="clip-path:url(#clipPath2); stroke:none; stroke-width:1;" height="3"
      /><rect x="475" y="201" width="6" style="clip-path:url(#clipPath2); fill:none; stroke:black; stroke-width:1;" height="3"
      /><rect x="475" y="196" width="6" style="clip-path:url(#clipPath2); stroke:none; stroke-width:1;" height="3"
      /><rect x="475" y="196" width="6" style="clip-path:url(#clipPath2); fill:none; stroke:black; stroke-width:1;" height="3"
    /></g
    ><g style="font-family:sans-serif; text-rendering:optimizeLegibility;" transform="matrix(1.3333,0,0,1.3333,119.4933,100.125) translate(407.5,204)"
    ><path d="M0.9219 0 L0.9219 -8.5938 L4.1719 -8.5938 Q5.0156 -8.5938 5.4688 -8.5156 Q6.1094 -8.4062 6.5391 -8.1094 Q6.9688 -7.8125 7.2266 -7.2812 Q7.4844 -6.75 7.4844 -6.1094 Q7.4844 -5.0156 6.7891 -4.2578 Q6.0938 -3.5 4.2656 -3.5 L2.0625 -3.5 L2.0625 0 L0.9219 0 ZM2.0625 -4.5 L4.2812 -4.5 Q5.3906 -4.5 5.8516 -4.9141 Q6.3125 -5.3281 6.3125 -6.0781 Q6.3125 -6.6094 6.0391 -6.9922 Q5.7656 -7.375 5.3281 -7.5 Q5.0312 -7.5781 4.2656 -7.5781 L2.0625 -7.5781 L2.0625 -4.5 ZM8.9727 0 L8.9727 -8.5938 L10.0977 -8.5938 L10.0977 -5.0625 L14.5664 -5.0625 L14.5664 -8.5938 L15.707 -8.5938 L15.707 0 L14.5664 0 L14.5664 -4.0469 L10.0977 -4.0469 L10.0977 0 L8.9727 0 ZM17.5918 0 L17.5918 -8.5938 L20.8418 -8.5938 Q21.6855 -8.5938 22.1387 -8.5156 Q22.7793 -8.4062 23.209 -8.1094 Q23.6387 -7.8125 23.8965 -7.2812 Q24.1543 -6.75 24.1543 -6.1094 Q24.1543 -5.0156 23.459 -4.2578 Q22.7637 -3.5 20.9355 -3.5 L18.7324 -3.5 L18.7324 0 L17.5918 0 ZM18.7324 -4.5 L20.9512 -4.5 Q22.0605 -4.5 22.5215 -4.9141 Q22.9824 -5.3281 22.9824 -6.0781 Q22.9824 -6.6094 22.709 -6.9922 Q22.4355 -7.375 21.998 -7.5 Q21.7012 -7.5781 20.9355 -7.5781 L18.7324 -7.5781 L18.7324 -4.5 ZM28.5703 -7.4688 L28.5703 -8.4844 L34.1328 -8.4844 L34.1328 -7.6562 Q33.3203 -6.7812 32.5156 -5.3359 Q31.7109 -3.8906 31.2734 -2.3594 Q30.9453 -1.2812 30.8672 0 L29.7734 0 Q29.7891 -1.0156 30.1719 -2.4531 Q30.5547 -3.8906 31.2656 -5.2188 Q31.9766 -6.5469 32.7891 -7.4688 L28.5703 -7.4688 Z" style="stroke:none; clip-path:url(#clipPath5);"
    /></g
    ><g transform="matrix(1.3333,0,0,1.3333,119.4933,100.125)" style="fill:rgb(255,255,204); text-rendering:geometricPrecision; font-family:sans-serif; shape-rendering:crispEdges; stroke:rgb(255,255,204); stroke-width:2;"
    ><rect x="337" y="289" width="175" style="clip-path:url(#clipPath2); stroke:none;" height="46.1875"
      /><rect x="337" y="289" width="175" style="clip-path:url(#clipPath2); fill:none; stroke:black;" height="46.1875"
      /><rect x="494" y="295" width="12" style="clip-path:url(#clipPath2); stroke:none; stroke-width:1;" height="14"
      /><rect x="494" y="295" width="12" style="clip-path:url(#clipPath2); fill:none; stroke:black; stroke-width:1;" height="14"
      /><rect x="492" y="303" width="6" style="clip-path:url(#clipPath2); stroke:none; stroke-width:1;" height="3"
      /><rect x="492" y="303" width="6" style="clip-path:url(#clipPath2); fill:none; stroke:black; stroke-width:1;" height="3"
      /><rect x="492" y="298" width="6" style="clip-path:url(#clipPath2); stroke:none; stroke-width:1;" height="3"
      /><rect x="492" y="298" width="6" style="clip-path:url(#clipPath2); fill:none; stroke:black; stroke-width:1;" height="3"
    /></g
    ><g style="font-family:sans-serif; text-rendering:optimizeLegibility;" transform="matrix(1.3333,0,0,1.3333,119.4933,100.125) translate(367.5,306)"
    ><path d="M0.9219 0 L0.9219 -8.5938 L2.0781 -8.5938 L6.5938 -1.8438 L6.5938 -8.5938 L7.6875 -8.5938 L7.6875 0 L6.5156 0 L2 -6.75 L2 0 L0.9219 0 ZM9.2598 0.5156 L10.291 0.6719 Q10.3535 1.1406 10.6504 1.3594 Q11.041 1.6562 11.7129 1.6562 Q12.4473 1.6562 12.8457 1.3594 Q13.2441 1.0625 13.3848 0.5469 Q13.4785 0.2188 13.4629 -0.8125 Q12.7754 0 11.7441 0 Q10.4629 0 9.7598 -0.9297 Q9.0566 -1.8594 9.0566 -3.1406 Q9.0566 -4.0312 9.377 -4.7891 Q9.6973 -5.5469 10.3066 -5.9531 Q10.916 -6.3594 11.7441 -6.3594 Q12.8535 -6.3594 13.5723 -5.4688 L13.5723 -6.2188 L14.541 -6.2188 L14.541 -0.8438 Q14.541 0.6094 14.2441 1.2188 Q13.9473 1.8281 13.3066 2.1797 Q12.666 2.5312 11.7285 2.5312 Q10.6191 2.5312 9.9316 2.0312 Q9.2441 1.5312 9.2598 0.5156 ZM10.1348 -3.2188 Q10.1348 -2 10.6191 -1.4375 Q11.1035 -0.875 11.8379 -0.875 Q12.5723 -0.875 13.0645 -1.4375 Q13.5566 -2 13.5566 -3.1875 Q13.5566 -4.3281 13.0488 -4.9062 Q12.541 -5.4844 11.8223 -5.4844 Q11.1191 -5.4844 10.627 -4.9141 Q10.1348 -4.3438 10.1348 -3.2188 ZM16.1367 -7.375 L16.1367 -8.5938 L17.1992 -8.5938 L17.1992 -7.375 L16.1367 -7.375 ZM16.1367 0 L16.1367 -6.2188 L17.1992 -6.2188 L17.1992 0 L16.1367 0 ZM18.8027 0 L18.8027 -6.2188 L19.7402 -6.2188 L19.7402 -5.3438 Q20.4277 -6.3594 21.7246 -6.3594 Q22.2871 -6.3594 22.7637 -6.1562 Q23.2402 -5.9531 23.4746 -5.625 Q23.709 -5.2969 23.8027 -4.8594 Q23.8496 -4.5625 23.8496 -3.8281 L23.8496 0 L22.8027 0 L22.8027 -3.7812 Q22.8027 -4.4375 22.6777 -4.75 Q22.5527 -5.0625 22.2402 -5.2578 Q21.9277 -5.4531 21.5059 -5.4531 Q20.834 -5.4531 20.3418 -5.0234 Q19.8496 -4.5938 19.8496 -3.4062 L19.8496 0 L18.8027 0 ZM24.7734 0 L27.0391 -3.2344 L24.9453 -6.2188 L26.2578 -6.2188 L27.2109 -4.7656 Q27.4766 -4.3438 27.6484 -4.0625 Q27.8984 -4.4531 28.1172 -4.75 L29.1641 -6.2188 L30.4297 -6.2188 L28.2734 -3.2969 L30.5859 0 L29.3047 0 L28.0234 -1.9375 L27.6797 -2.4531 L26.0391 0 L24.7734 0 ZM34.8887 0 L34.8887 -8.5938 L36.0293 -8.5938 L36.0293 -1.0156 L40.2637 -1.0156 L40.2637 0 L34.8887 0 ZM41.0938 -3.1094 Q41.0938 -4.8438 42.0469 -5.6719 Q42.8438 -6.3594 44 -6.3594 Q45.2812 -6.3594 46.1016 -5.5234 Q46.9219 -4.6875 46.9219 -3.2031 Q46.9219 -2 46.5625 -1.3125 Q46.2031 -0.625 45.5078 -0.2422 Q44.8125 0.1406 44 0.1406 Q42.7031 0.1406 41.8984 -0.6953 Q41.0938 -1.5312 41.0938 -3.1094 ZM42.1719 -3.1094 Q42.1719 -1.9219 42.6953 -1.3281 Q43.2188 -0.7344 44 -0.7344 Q44.7969 -0.7344 45.3125 -1.3281 Q45.8281 -1.9219 45.8281 -3.1406 Q45.8281 -4.2969 45.3047 -4.8906 Q44.7812 -5.4844 44 -5.4844 Q43.2188 -5.4844 42.6953 -4.8984 Q42.1719 -4.3125 42.1719 -3.1094 ZM52.2207 -0.7656 Q51.627 -0.2656 51.0879 -0.0625 Q50.5488 0.1406 49.9238 0.1406 Q48.8926 0.1406 48.3457 -0.3594 Q47.7988 -0.8594 47.7988 -1.6406 Q47.7988 -2.0938 48.002 -2.4766 Q48.2051 -2.8594 48.5488 -3.0859 Q48.8926 -3.3125 49.3145 -3.4219 Q49.6113 -3.5156 50.252 -3.5938 Q51.5176 -3.7344 52.127 -3.9531 Q52.127 -4.1719 52.127 -4.2188 Q52.127 -4.875 51.8301 -5.1406 Q51.4238 -5.4844 50.627 -5.4844 Q49.8926 -5.4844 49.5332 -5.2266 Q49.1738 -4.9688 49.002 -4.3125 L47.9707 -4.4531 Q48.1113 -5.1094 48.4395 -5.5156 Q48.7676 -5.9219 49.377 -6.1406 Q49.9863 -6.3594 50.7832 -6.3594 Q51.5801 -6.3594 52.0801 -6.1719 Q52.5801 -5.9844 52.8145 -5.7031 Q53.0488 -5.4219 53.1426 -4.9844 Q53.1895 -4.7188 53.1895 -4.0156 L53.1895 -2.6094 Q53.1895 -1.1406 53.2598 -0.75 Q53.3301 -0.3594 53.5332 0 L52.4238 0 Q52.2676 -0.3281 52.2207 -0.7656 ZM52.127 -3.125 Q51.5488 -2.8906 50.4082 -2.7188 Q49.752 -2.625 49.4863 -2.5078 Q49.2207 -2.3906 49.0723 -2.1719 Q48.9238 -1.9531 48.9238 -1.6719 Q48.9238 -1.25 49.2441 -0.9688 Q49.5645 -0.6875 50.1738 -0.6875 Q50.7832 -0.6875 51.2598 -0.9531 Q51.7363 -1.2188 51.9551 -1.6875 Q52.127 -2.0469 52.127 -2.7344 L52.127 -3.125 ZM58.8633 0 L58.8633 -0.7812 Q58.2695 0.1406 57.1289 0.1406 Q56.3789 0.1406 55.7539 -0.2734 Q55.1289 -0.6875 54.7852 -1.4219 Q54.4414 -2.1562 54.4414 -3.1094 Q54.4414 -4.0312 54.7539 -4.7969 Q55.0664 -5.5625 55.6914 -5.9609 Q56.3164 -6.3594 57.082 -6.3594 Q57.6445 -6.3594 58.082 -6.125 Q58.5195 -5.8906 58.8008 -5.5156 L58.8008 -8.5938 L59.8477 -8.5938 L59.8477 0 L58.8633 0 ZM55.5352 -3.1094 Q55.5352 -1.9062 56.0352 -1.3203 Q56.5352 -0.7344 57.2227 -0.7344 Q57.9102 -0.7344 58.3945 -1.2969 Q58.8789 -1.8594 58.8789 -3.0156 Q58.8789 -4.2969 58.3867 -4.8906 Q57.8945 -5.4844 57.1758 -5.4844 Q56.4727 -5.4844 56.0039 -4.9141 Q55.5352 -4.3438 55.5352 -3.1094 ZM64.918 0 L64.918 -8.5938 L68.1523 -8.5938 Q69.1367 -8.5938 69.7305 -8.3281 Q70.3242 -8.0625 70.6602 -7.5234 Q70.9961 -6.9844 70.9961 -6.3906 Q70.9961 -5.8438 70.6992 -5.3594 Q70.4023 -4.875 69.793 -4.5781 Q70.5742 -4.3438 70.9883 -3.7891 Q71.4023 -3.2344 71.4023 -2.4844 Q71.4023 -1.8906 71.1523 -1.3672 Q70.9023 -0.8438 70.5273 -0.5625 Q70.1523 -0.2812 69.582 -0.1406 Q69.0117 0 68.1992 0 L64.918 0 ZM66.0586 -4.9844 L67.918 -4.9844 Q68.668 -4.9844 68.9961 -5.0781 Q69.4336 -5.2031 69.6523 -5.5078 Q69.8711 -5.8125 69.8711 -6.2656 Q69.8711 -6.6875 69.668 -7.0156 Q69.4648 -7.3438 69.082 -7.4609 Q68.6992 -7.5781 67.7773 -7.5781 L66.0586 -7.5781 L66.0586 -4.9844 ZM66.0586 -1.0156 L68.1992 -1.0156 Q68.7461 -1.0156 68.9648 -1.0625 Q69.3711 -1.125 69.6289 -1.2891 Q69.8867 -1.4531 70.0586 -1.7656 Q70.2305 -2.0781 70.2305 -2.4844 Q70.2305 -2.9688 69.9883 -3.3281 Q69.7461 -3.6875 69.3086 -3.8281 Q68.8711 -3.9688 68.043 -3.9688 L66.0586 -3.9688 L66.0586 -1.0156 ZM76.9062 -0.7656 Q76.3125 -0.2656 75.7734 -0.0625 Q75.2344 0.1406 74.6094 0.1406 Q73.5781 0.1406 73.0312 -0.3594 Q72.4844 -0.8594 72.4844 -1.6406 Q72.4844 -2.0938 72.6875 -2.4766 Q72.8906 -2.8594 73.2344 -3.0859 Q73.5781 -3.3125 74 -3.4219 Q74.2969 -3.5156 74.9375 -3.5938 Q76.2031 -3.7344 76.8125 -3.9531 Q76.8125 -4.1719 76.8125 -4.2188 Q76.8125 -4.875 76.5156 -5.1406 Q76.1094 -5.4844 75.3125 -5.4844 Q74.5781 -5.4844 74.2188 -5.2266 Q73.8594 -4.9688 73.6875 -4.3125 L72.6562 -4.4531 Q72.7969 -5.1094 73.125 -5.5156 Q73.4531 -5.9219 74.0625 -6.1406 Q74.6719 -6.3594 75.4688 -6.3594 Q76.2656 -6.3594 76.7656 -6.1719 Q77.2656 -5.9844 77.5 -5.7031 Q77.7344 -5.4219 77.8281 -4.9844 Q77.875 -4.7188 77.875 -4.0156 L77.875 -2.6094 Q77.875 -1.1406 77.9453 -0.75 Q78.0156 -0.3594 78.2188 0 L77.1094 0 Q76.9531 -0.3281 76.9062 -0.7656 ZM76.8125 -3.125 Q76.2344 -2.8906 75.0938 -2.7188 Q74.4375 -2.625 74.1719 -2.5078 Q73.9062 -2.3906 73.7578 -2.1719 Q73.6094 -1.9531 73.6094 -1.6719 Q73.6094 -1.25 73.9297 -0.9688 Q74.25 -0.6875 74.8594 -0.6875 Q75.4688 -0.6875 75.9453 -0.9531 Q76.4219 -1.2188 76.6406 -1.6875 Q76.8125 -2.0469 76.8125 -2.7344 L76.8125 -3.125 ZM79.4863 0 L79.4863 -8.5938 L80.5488 -8.5938 L80.5488 0 L79.4863 0 ZM86.2461 -0.7656 Q85.6523 -0.2656 85.1133 -0.0625 Q84.5742 0.1406 83.9492 0.1406 Q82.918 0.1406 82.3711 -0.3594 Q81.8242 -0.8594 81.8242 -1.6406 Q81.8242 -2.0938 82.0273 -2.4766 Q82.2305 -2.8594 82.5742 -3.0859 Q82.918 -3.3125 83.3398 -3.4219 Q83.6367 -3.5156 84.2773 -3.5938 Q85.543 -3.7344 86.1523 -3.9531 Q86.1523 -4.1719 86.1523 -4.2188 Q86.1523 -4.875 85.8555 -5.1406 Q85.4492 -5.4844 84.6523 -5.4844 Q83.918 -5.4844 83.5586 -5.2266 Q83.1992 -4.9688 83.0273 -4.3125 L81.9961 -4.4531 Q82.1367 -5.1094 82.4648 -5.5156 Q82.793 -5.9219 83.4023 -6.1406 Q84.0117 -6.3594 84.8086 -6.3594 Q85.6055 -6.3594 86.1055 -6.1719 Q86.6055 -5.9844 86.8398 -5.7031 Q87.0742 -5.4219 87.168 -4.9844 Q87.2148 -4.7188 87.2148 -4.0156 L87.2148 -2.6094 Q87.2148 -1.1406 87.2852 -0.75 Q87.3555 -0.3594 87.5586 0 L86.4492 0 Q86.293 -0.3281 86.2461 -0.7656 ZM86.1523 -3.125 Q85.5742 -2.8906 84.4336 -2.7188 Q83.7773 -2.625 83.5117 -2.5078 Q83.2461 -2.3906 83.0977 -2.1719 Q82.9492 -1.9531 82.9492 -1.6719 Q82.9492 -1.25 83.2695 -0.9688 Q83.5898 -0.6875 84.1992 -0.6875 Q84.8086 -0.6875 85.2852 -0.9531 Q85.7617 -1.2188 85.9805 -1.6875 Q86.1523 -2.0469 86.1523 -2.7344 L86.1523 -3.125 ZM88.8574 0 L88.8574 -6.2188 L89.7949 -6.2188 L89.7949 -5.3438 Q90.4824 -6.3594 91.7793 -6.3594 Q92.3418 -6.3594 92.8184 -6.1562 Q93.2949 -5.9531 93.5293 -5.625 Q93.7637 -5.2969 93.8574 -4.8594 Q93.9043 -4.5625 93.9043 -3.8281 L93.9043 0 L92.8574 0 L92.8574 -3.7812 Q92.8574 -4.4375 92.7324 -4.75 Q92.6074 -5.0625 92.2949 -5.2578 Q91.9824 -5.4531 91.5605 -5.4531 Q90.8887 -5.4531 90.3965 -5.0234 Q89.9043 -4.5938 89.9043 -3.4062 L89.9043 0 L88.8574 0 ZM99.5938 -2.2812 L100.625 -2.1406 Q100.4531 -1.0781 99.75 -0.4688 Q99.0469 0.1406 98.0312 0.1406 Q96.75 0.1406 95.9766 -0.6953 Q95.2031 -1.5312 95.2031 -3.0938 Q95.2031 -4.0938 95.5391 -4.8516 Q95.875 -5.6094 96.5547 -5.9844 Q97.2344 -6.3594 98.0469 -6.3594 Q99.0469 -6.3594 99.6953 -5.8516 Q100.3438 -5.3438 100.5312 -4.3906 L99.5 -4.2344 Q99.3594 -4.8594 98.9844 -5.1797 Q98.6094 -5.5 98.0781 -5.5 Q97.2812 -5.5 96.7812 -4.9297 Q96.2812 -4.3594 96.2812 -3.125 Q96.2812 -1.8594 96.7656 -1.2969 Q97.25 -0.7344 98.0156 -0.7344 Q98.6406 -0.7344 99.0547 -1.1094 Q99.4688 -1.4844 99.5938 -2.2812 ZM105.7812 -2 L106.875 -1.875 Q106.625 -0.9219 105.9219 -0.3906 Q105.2188 0.1406 104.1406 0.1406 Q102.7812 0.1406 101.9766 -0.7031 Q101.1719 -1.5469 101.1719 -3.0625 Q101.1719 -4.625 101.9844 -5.4922 Q102.7969 -6.3594 104.0781 -6.3594 Q105.3281 -6.3594 106.1172 -5.5156 Q106.9062 -4.6719 106.9062 -3.125 Q106.9062 -3.0312 106.9062 -2.8438 L102.2656 -2.8438 Q102.3281 -1.8125 102.8438 -1.2734 Q103.3594 -0.7344 104.1406 -0.7344 Q104.7188 -0.7344 105.1328 -1.0391 Q105.5469 -1.3438 105.7812 -2 ZM102.3281 -3.7031 L105.7969 -3.7031 Q105.7344 -4.5 105.4062 -4.8906 Q104.8906 -5.5 104.0938 -5.5 Q103.3594 -5.5 102.8672 -5.0156 Q102.375 -4.5312 102.3281 -3.7031 ZM108.1895 0 L108.1895 -6.2188 L109.1426 -6.2188 L109.1426 -5.2812 Q109.502 -5.9375 109.8066 -6.1484 Q110.1113 -6.3594 110.4863 -6.3594 Q111.0176 -6.3594 111.5645 -6.0312 L111.2051 -5.0469 Q110.8145 -5.2812 110.4395 -5.2812 Q110.0801 -5.2812 109.8066 -5.0703 Q109.5332 -4.8594 109.4238 -4.4844 Q109.2363 -3.9219 109.2363 -3.2656 L109.2363 0 L108.1895 0 Z" style="stroke:none; clip-path:url(#clipPath6);"
    /></g
    ><g transform="matrix(1.3333,0,0,1.3333,119.4933,100.125)" style="fill:rgb(255,255,204); text-rendering:optimizeLegibility; stroke-width:2; font-family:sans-serif; stroke:rgb(255,255,204);"
    ><polygon style="stroke:none; clip-path:url(#clipPath2);" points=" -3 248 1 244 122 244 122 290 118 294 -3 294"
      /><polygon style="fill:none; clip-path:url(#clipPath2); stroke:black;" points=" -3 248 1 244 122 244 122 290 118 294 -3 294"
      /><line x1="118" x2="121" y1="248" style="clip-path:url(#clipPath2); fill:none; stroke:black;" y2="245"
      /><line x1="-3" x2="118" y1="248" style="clip-path:url(#clipPath2); fill:none; stroke:black;" y2="248"
      /><line x1="118" x2="118" y1="248" style="clip-path:url(#clipPath2); fill:none; stroke:black;" y2="294"
    /></g
    ><g style="text-rendering:optimizeLegibility; stroke-width:2; font-family:sans-serif;" transform="matrix(1.3333,0,0,1.3333,119.4933,100.125) translate(7,265)"
    ><path d="M0.875 0 L0.875 -8.5938 L4.1094 -8.5938 Q5.0938 -8.5938 5.6875 -8.3281 Q6.2812 -8.0625 6.6172 -7.5234 Q6.9531 -6.9844 6.9531 -6.3906 Q6.9531 -5.8438 6.6562 -5.3594 Q6.3594 -4.875 5.75 -4.5781 Q6.5312 -4.3438 6.9453 -3.7891 Q7.3594 -3.2344 7.3594 -2.4844 Q7.3594 -1.8906 7.1094 -1.3672 Q6.8594 -0.8438 6.4844 -0.5625 Q6.1094 -0.2812 5.5391 -0.1406 Q4.9688 0 4.1562 0 L0.875 0 ZM2.0156 -4.9844 L3.875 -4.9844 Q4.625 -4.9844 4.9531 -5.0781 Q5.3906 -5.2031 5.6094 -5.5078 Q5.8281 -5.8125 5.8281 -6.2656 Q5.8281 -6.6875 5.625 -7.0156 Q5.4219 -7.3438 5.0391 -7.4609 Q4.6562 -7.5781 3.7344 -7.5781 L2.0156 -7.5781 L2.0156 -4.9844 ZM2.0156 -1.0156 L4.1562 -1.0156 Q4.7031 -1.0156 4.9219 -1.0625 Q5.3281 -1.125 5.5859 -1.2891 Q5.8438 -1.4531 6.0156 -1.7656 Q6.1875 -2.0781 6.1875 -2.4844 Q6.1875 -2.9688 5.9453 -3.3281 Q5.7031 -3.6875 5.2656 -3.8281 Q4.8281 -3.9688 4 -3.9688 L2.0156 -3.9688 L2.0156 -1.0156 ZM8.7852 0 L8.7852 -6.2188 L9.7383 -6.2188 L9.7383 -5.2812 Q10.0977 -5.9375 10.4023 -6.1484 Q10.707 -6.3594 11.082 -6.3594 Q11.6133 -6.3594 12.1602 -6.0312 L11.8008 -5.0469 Q11.4102 -5.2812 11.0352 -5.2812 Q10.6758 -5.2812 10.4023 -5.0703 Q10.1289 -4.8594 10.0195 -4.4844 Q9.832 -3.9219 9.832 -3.2656 L9.832 0 L8.7852 0 ZM12.4062 -3.1094 Q12.4062 -4.8438 13.3594 -5.6719 Q14.1562 -6.3594 15.3125 -6.3594 Q16.5938 -6.3594 17.4141 -5.5234 Q18.2344 -4.6875 18.2344 -3.2031 Q18.2344 -2 17.875 -1.3125 Q17.5156 -0.625 16.8203 -0.2422 Q16.125 0.1406 15.3125 0.1406 Q14.0156 0.1406 13.2109 -0.6953 Q12.4062 -1.5312 12.4062 -3.1094 ZM13.4844 -3.1094 Q13.4844 -1.9219 14.0078 -1.3281 Q14.5312 -0.7344 15.3125 -0.7344 Q16.1094 -0.7344 16.625 -1.3281 Q17.1406 -1.9219 17.1406 -3.1406 Q17.1406 -4.2969 16.6172 -4.8906 Q16.0938 -5.4844 15.3125 -5.4844 Q14.5312 -5.4844 14.0078 -4.8984 Q13.4844 -4.3125 13.4844 -3.1094 ZM20.6113 0 L18.7051 -6.2188 L19.7988 -6.2188 L20.7832 -2.625 L21.1582 -1.2969 Q21.1895 -1.3906 21.4863 -2.5781 L22.4707 -6.2188 L23.5488 -6.2188 L24.4863 -2.6094 L24.7988 -1.4219 L25.1582 -2.625 L26.2207 -6.2188 L27.252 -6.2188 L25.2988 0 L24.2051 0 L23.2207 -3.7344 L22.9707 -4.7812 L21.7207 0 L20.6113 0 ZM27.7148 -1.8594 L28.7461 -2.0156 Q28.8398 -1.3906 29.2383 -1.0625 Q29.6367 -0.7344 30.3711 -0.7344 Q31.0898 -0.7344 31.4414 -1.0234 Q31.793 -1.3125 31.793 -1.7188 Q31.793 -2.0781 31.4805 -2.2812 Q31.2617 -2.4219 30.4023 -2.6406 Q29.2461 -2.9375 28.8008 -3.1484 Q28.3555 -3.3594 28.1211 -3.7344 Q27.8867 -4.1094 27.8867 -4.5781 Q27.8867 -4.9844 28.0742 -5.3438 Q28.2617 -5.7031 28.5898 -5.9375 Q28.8398 -6.1094 29.2617 -6.2344 Q29.6836 -6.3594 30.1836 -6.3594 Q30.9023 -6.3594 31.457 -6.1484 Q32.0117 -5.9375 32.2773 -5.5781 Q32.543 -5.2188 32.6367 -4.625 L31.6055 -4.4844 Q31.543 -4.9531 31.207 -5.2266 Q30.8711 -5.5 30.2461 -5.5 Q29.5273 -5.5 29.2148 -5.2578 Q28.9023 -5.0156 28.9023 -4.6875 Q28.9023 -4.4844 29.0273 -4.3281 Q29.168 -4.1562 29.4336 -4.0469 Q29.5898 -3.9844 30.3711 -3.7812 Q31.4961 -3.4688 31.9336 -3.2812 Q32.3711 -3.0938 32.6211 -2.7344 Q32.8711 -2.375 32.8711 -1.8281 Q32.8711 -1.2969 32.5664 -0.8359 Q32.2617 -0.375 31.6836 -0.1172 Q31.1055 0.1406 30.3711 0.1406 Q29.1523 0.1406 28.5195 -0.3672 Q27.8867 -0.875 27.7148 -1.8594 ZM38.3867 -2 L39.4805 -1.875 Q39.2305 -0.9219 38.5273 -0.3906 Q37.8242 0.1406 36.7461 0.1406 Q35.3867 0.1406 34.582 -0.7031 Q33.7773 -1.5469 33.7773 -3.0625 Q33.7773 -4.625 34.5898 -5.4922 Q35.4023 -6.3594 36.6836 -6.3594 Q37.9336 -6.3594 38.7227 -5.5156 Q39.5117 -4.6719 39.5117 -3.125 Q39.5117 -3.0312 39.5117 -2.8438 L34.8711 -2.8438 Q34.9336 -1.8125 35.4492 -1.2734 Q35.9648 -0.7344 36.7461 -0.7344 Q37.3242 -0.7344 37.7383 -1.0391 Q38.1523 -1.3438 38.3867 -2 ZM34.9336 -3.7031 L38.4023 -3.7031 Q38.3398 -4.5 38.0117 -4.8906 Q37.4961 -5.5 36.6992 -5.5 Q35.9648 -5.5 35.4727 -5.0156 Q34.9805 -4.5312 34.9336 -3.7031 ZM40.7949 0 L40.7949 -6.2188 L41.748 -6.2188 L41.748 -5.2812 Q42.1074 -5.9375 42.4121 -6.1484 Q42.7168 -6.3594 43.0918 -6.3594 Q43.623 -6.3594 44.1699 -6.0312 L43.8105 -5.0469 Q43.4199 -5.2812 43.0449 -5.2812 Q42.6855 -5.2812 42.4121 -5.0703 Q42.1387 -4.8594 42.0293 -4.4844 Q41.8418 -3.9219 41.8418 -3.2656 L41.8418 0 L40.7949 0 ZM54.4062 -3.0156 L55.5312 -2.7188 Q55.1719 -1.3281 54.25 -0.5938 Q53.3281 0.1406 51.9844 0.1406 Q50.5938 0.1406 49.7188 -0.4219 Q48.8438 -0.9844 48.3906 -2.0547 Q47.9375 -3.125 47.9375 -4.3594 Q47.9375 -5.7031 48.4531 -6.7031 Q48.9688 -7.7031 49.9141 -8.2188 Q50.8594 -8.7344 52 -8.7344 Q53.2812 -8.7344 54.1641 -8.0781 Q55.0469 -7.4219 55.3906 -6.2344 L54.2656 -5.9688 Q53.9688 -6.9062 53.3984 -7.3359 Q52.8281 -7.7656 51.9688 -7.7656 Q50.9844 -7.7656 50.3203 -7.2891 Q49.6562 -6.8125 49.3828 -6.0156 Q49.1094 -5.2188 49.1094 -4.3594 Q49.1094 -3.2656 49.4297 -2.4531 Q49.75 -1.6406 50.4219 -1.2344 Q51.0938 -0.8281 51.8906 -0.8281 Q52.8438 -0.8281 53.5078 -1.375 Q54.1719 -1.9219 54.4062 -3.0156 ZM56.7754 0 L56.7754 -8.5938 L57.8379 -8.5938 L57.8379 0 L56.7754 0 ZM59.4727 -7.375 L59.4727 -8.5938 L60.5352 -8.5938 L60.5352 -7.375 L59.4727 -7.375 ZM59.4727 0 L59.4727 -6.2188 L60.5352 -6.2188 L60.5352 0 L59.4727 0 ZM66.3887 -2 L67.4824 -1.875 Q67.2324 -0.9219 66.5293 -0.3906 Q65.8262 0.1406 64.748 0.1406 Q63.3887 0.1406 62.584 -0.7031 Q61.7793 -1.5469 61.7793 -3.0625 Q61.7793 -4.625 62.5918 -5.4922 Q63.4043 -6.3594 64.6855 -6.3594 Q65.9355 -6.3594 66.7246 -5.5156 Q67.5137 -4.6719 67.5137 -3.125 Q67.5137 -3.0312 67.5137 -2.8438 L62.873 -2.8438 Q62.9355 -1.8125 63.4512 -1.2734 Q63.9668 -0.7344 64.748 -0.7344 Q65.3262 -0.7344 65.7402 -1.0391 Q66.1543 -1.3438 66.3887 -2 ZM62.9355 -3.7031 L66.4043 -3.7031 Q66.3418 -4.5 66.0137 -4.8906 Q65.498 -5.5 64.7012 -5.5 Q63.9668 -5.5 63.4746 -5.0156 Q62.9824 -4.5312 62.9355 -3.7031 ZM68.8125 0 L68.8125 -6.2188 L69.75 -6.2188 L69.75 -5.3438 Q70.4375 -6.3594 71.7344 -6.3594 Q72.2969 -6.3594 72.7734 -6.1562 Q73.25 -5.9531 73.4844 -5.625 Q73.7188 -5.2969 73.8125 -4.8594 Q73.8594 -4.5625 73.8594 -3.8281 L73.8594 0 L72.8125 0 L72.8125 -3.7812 Q72.8125 -4.4375 72.6875 -4.75 Q72.5625 -5.0625 72.25 -5.2578 Q71.9375 -5.4531 71.5156 -5.4531 Q70.8438 -5.4531 70.3516 -5.0234 Q69.8594 -4.5938 69.8594 -3.4062 L69.8594 0 L68.8125 0 ZM77.7832 -0.9375 L77.9395 -0.0156 Q77.4863 0.0781 77.1426 0.0781 Q76.5645 0.0781 76.252 -0.1016 Q75.9395 -0.2812 75.8066 -0.5781 Q75.6738 -0.875 75.6738 -1.8281 L75.6738 -5.4062 L74.9082 -5.4062 L74.9082 -6.2188 L75.6738 -6.2188 L75.6738 -7.7656 L76.7207 -8.3906 L76.7207 -6.2188 L77.7832 -6.2188 L77.7832 -5.4062 L76.7207 -5.4062 L76.7207 -1.7656 Q76.7207 -1.3125 76.7754 -1.1875 Q76.8301 -1.0625 76.9551 -0.9844 Q77.0801 -0.9062 77.3145 -0.9062 Q77.502 -0.9062 77.7832 -0.9375 Z" style="stroke:none; clip-path:url(#clipPath7);"
    /></g
    ><g style="font-family:sans-serif; text-rendering:optimizeLegibility;" transform="matrix(1.3333,0,0,1.3333,119.4933,100.125)"
    ><line x1="315.88" x2="118" y1="265.7267" style="fill:none; clip-path:url(#clipPath2);" y2="269.8011"
      /><line x1="424.6132" x2="424.8868" y1="289" style="stroke-linecap:butt; clip-path:url(#clipPath2); fill:none; stroke-dasharray:5,5;" y2="233.1875"
      /><line x1="424.6132" x2="418.6642" y1="289" style="fill:none; clip-path:url(#clipPath2);" y2="278.5784"
      /><line x1="424.6132" x2="430.6641" y1="289" style="fill:none; clip-path:url(#clipPath2);" y2="278.6372"
      /><polygon style="fill:rgb(255,255,204); stroke-width:2; clip-path:url(#clipPath2); stroke:none;" points=" -64 -4 -60 -8 184 -8 184 89 180 93 -64 93"
      /><polygon style="fill:none; stroke-width:2; clip-path:url(#clipPath2);" points=" -64 -4 -60 -8 184 -8 184 89 180 93 -64 93"
      /><line x1="180" x2="183" y1="-4" style="clip-path:url(#clipPath2); fill:none; stroke-width:2;" y2="-7"
      /><line x1="-64" x2="180" y1="-4" style="clip-path:url(#clipPath2); fill:none; stroke-width:2;" y2="-4"
      /><line x1="180" x2="180" y1="-4" style="clip-path:url(#clipPath2); fill:none; stroke-width:2;" y2="93"
    /></g
    ><g style="text-rendering:optimizeLegibility; stroke-width:2; font-family:sans-serif;" transform="matrix(1.3333,0,0,1.3333,119.4933,100.125) translate(-54,13)"
    ><path d="M0.9375 0 L0.9375 -8.5938 L4.75 -8.5938 Q5.9062 -8.5938 6.5 -8.3594 Q7.0938 -8.125 7.4531 -7.5391 Q7.8125 -6.9531 7.8125 -6.25 Q7.8125 -5.3281 7.2188 -4.7031 Q6.625 -4.0781 5.3906 -3.9062 Q5.8438 -3.6875 6.0781 -3.4844 Q6.5781 -3.0312 7.0156 -2.3438 L8.5156 0 L7.0781 0 L5.9531 -1.7812 Q5.4531 -2.5625 5.1328 -2.9688 Q4.8125 -3.375 4.5547 -3.5391 Q4.2969 -3.7031 4.0312 -3.7812 Q3.8438 -3.8125 3.4062 -3.8125 L2.0781 -3.8125 L2.0781 0 L0.9375 0 ZM2.0781 -4.7969 L4.5312 -4.7969 Q5.2969 -4.7969 5.7422 -4.9609 Q6.1875 -5.125 6.4141 -5.4766 Q6.6406 -5.8281 6.6406 -6.25 Q6.6406 -6.8594 6.1953 -7.25 Q5.75 -7.6406 4.7969 -7.6406 L2.0781 -7.6406 L2.0781 -4.7969 ZM13.7129 -2 L14.8066 -1.875 Q14.5566 -0.9219 13.8535 -0.3906 Q13.1504 0.1406 12.0723 0.1406 Q10.7129 0.1406 9.9082 -0.7031 Q9.1035 -1.5469 9.1035 -3.0625 Q9.1035 -4.625 9.916 -5.4922 Q10.7285 -6.3594 12.0098 -6.3594 Q13.2598 -6.3594 14.0488 -5.5156 Q14.8379 -4.6719 14.8379 -3.125 Q14.8379 -3.0312 14.8379 -2.8438 L10.1973 -2.8438 Q10.2598 -1.8125 10.7754 -1.2734 Q11.291 -0.7344 12.0723 -0.7344 Q12.6504 -0.7344 13.0645 -1.0391 Q13.4785 -1.3438 13.7129 -2 ZM10.2598 -3.7031 L13.7285 -3.7031 Q13.666 -4.5 13.3379 -4.8906 Q12.8223 -5.5 12.0254 -5.5 Q11.291 -5.5 10.7988 -5.0156 Q10.3066 -4.5312 10.2598 -3.7031 ZM20.1992 -0.7656 Q19.6055 -0.2656 19.0664 -0.0625 Q18.5273 0.1406 17.9023 0.1406 Q16.8711 0.1406 16.3242 -0.3594 Q15.7773 -0.8594 15.7773 -1.6406 Q15.7773 -2.0938 15.9805 -2.4766 Q16.1836 -2.8594 16.5273 -3.0859 Q16.8711 -3.3125 17.293 -3.4219 Q17.5898 -3.5156 18.2305 -3.5938 Q19.4961 -3.7344 20.1055 -3.9531 Q20.1055 -4.1719 20.1055 -4.2188 Q20.1055 -4.875 19.8086 -5.1406 Q19.4023 -5.4844 18.6055 -5.4844 Q17.8711 -5.4844 17.5117 -5.2266 Q17.1523 -4.9688 16.9805 -4.3125 L15.9492 -4.4531 Q16.0898 -5.1094 16.418 -5.5156 Q16.7461 -5.9219 17.3555 -6.1406 Q17.9648 -6.3594 18.7617 -6.3594 Q19.5586 -6.3594 20.0586 -6.1719 Q20.5586 -5.9844 20.793 -5.7031 Q21.0273 -5.4219 21.1211 -4.9844 Q21.168 -4.7188 21.168 -4.0156 L21.168 -2.6094 Q21.168 -1.1406 21.2383 -0.75 Q21.3086 -0.3594 21.5117 0 L20.4023 0 Q20.2461 -0.3281 20.1992 -0.7656 ZM20.1055 -3.125 Q19.5273 -2.8906 18.3867 -2.7188 Q17.7305 -2.625 17.4648 -2.5078 Q17.1992 -2.3906 17.0508 -2.1719 Q16.9023 -1.9531 16.9023 -1.6719 Q16.9023 -1.25 17.2227 -0.9688 Q17.543 -0.6875 18.1523 -0.6875 Q18.7617 -0.6875 19.2383 -0.9531 Q19.7148 -1.2188 19.9336 -1.6875 Q20.1055 -2.0469 20.1055 -2.7344 L20.1055 -3.125 ZM22.7793 0 L22.7793 -8.5938 L23.8418 -8.5938 L23.8418 0 L22.7793 0 ZM31.1074 -0.9375 L31.2637 -0.0156 Q30.8105 0.0781 30.4668 0.0781 Q29.8887 0.0781 29.5762 -0.1016 Q29.2637 -0.2812 29.1309 -0.5781 Q28.998 -0.875 28.998 -1.8281 L28.998 -5.4062 L28.2324 -5.4062 L28.2324 -6.2188 L28.998 -6.2188 L28.998 -7.7656 L30.0449 -8.3906 L30.0449 -6.2188 L31.1074 -6.2188 L31.1074 -5.4062 L30.0449 -5.4062 L30.0449 -1.7656 Q30.0449 -1.3125 30.0996 -1.1875 Q30.1543 -1.0625 30.2793 -0.9844 Q30.4043 -0.9062 30.6387 -0.9062 Q30.8262 -0.9062 31.1074 -0.9375 ZM32.1445 -7.375 L32.1445 -8.5938 L33.207 -8.5938 L33.207 -7.375 L32.1445 -7.375 ZM32.1445 0 L32.1445 -6.2188 L33.207 -6.2188 L33.207 0 L32.1445 0 ZM34.8105 0 L34.8105 -6.2188 L35.748 -6.2188 L35.748 -5.3438 Q36.0449 -5.8125 36.5293 -6.0859 Q37.0137 -6.3594 37.6387 -6.3594 Q38.3262 -6.3594 38.7715 -6.0781 Q39.2168 -5.7969 39.3887 -5.2812 Q40.1387 -6.3594 41.3105 -6.3594 Q42.248 -6.3594 42.7402 -5.8516 Q43.2324 -5.3438 43.2324 -4.2656 L43.2324 0 L42.1855 0 L42.1855 -3.9219 Q42.1855 -4.5469 42.084 -4.8281 Q41.9824 -5.1094 41.7168 -5.2812 Q41.4512 -5.4531 41.0762 -5.4531 Q40.4199 -5.4531 39.9902 -5.0156 Q39.5605 -4.5781 39.5605 -3.6094 L39.5605 0 L38.498 0 L38.498 -4.0469 Q38.498 -4.75 38.2402 -5.1016 Q37.9824 -5.4531 37.4043 -5.4531 Q36.9512 -5.4531 36.5762 -5.2188 Q36.2012 -4.9844 36.0293 -4.5312 Q35.8574 -4.0781 35.8574 -3.2344 L35.8574 0 L34.8105 0 ZM49.0566 -2 L50.1504 -1.875 Q49.9004 -0.9219 49.1973 -0.3906 Q48.4941 0.1406 47.416 0.1406 Q46.0566 0.1406 45.252 -0.7031 Q44.4473 -1.5469 44.4473 -3.0625 Q44.4473 -4.625 45.2598 -5.4922 Q46.0723 -6.3594 47.3535 -6.3594 Q48.6035 -6.3594 49.3926 -5.5156 Q50.1816 -4.6719 50.1816 -3.125 Q50.1816 -3.0312 50.1816 -2.8438 L45.541 -2.8438 Q45.6035 -1.8125 46.1191 -1.2734 Q46.6348 -0.7344 47.416 -0.7344 Q47.9941 -0.7344 48.4082 -1.0391 Q48.8223 -1.3438 49.0566 -2 ZM45.6035 -3.7031 L49.0723 -3.7031 Q49.0098 -4.5 48.6816 -4.8906 Q48.166 -5.5 47.3691 -5.5 Q46.6348 -5.5 46.1426 -5.0156 Q45.6504 -4.5312 45.6035 -3.7031 ZM54.5645 -2.7656 L55.627 -2.8594 Q55.7051 -2.2031 55.9863 -1.7969 Q56.2676 -1.3906 56.8535 -1.1328 Q57.4395 -0.875 58.1738 -0.875 Q58.8145 -0.875 59.3145 -1.0703 Q59.8145 -1.2656 60.0566 -1.6016 Q60.2988 -1.9375 60.2988 -2.3281 Q60.2988 -2.7344 60.0645 -3.0391 Q59.8301 -3.3438 59.2988 -3.5469 Q58.9395 -3.6875 57.7598 -3.9688 Q56.5801 -4.25 56.1113 -4.5 Q55.4863 -4.8281 55.1895 -5.3047 Q54.8926 -5.7812 54.8926 -6.375 Q54.8926 -7.0156 55.2598 -7.5859 Q55.627 -8.1562 56.3379 -8.4453 Q57.0488 -8.7344 57.9082 -8.7344 Q58.8613 -8.7344 59.5957 -8.4297 Q60.3301 -8.125 60.7207 -7.5234 Q61.1113 -6.9219 61.1426 -6.1719 L60.0488 -6.0938 Q59.9551 -6.9062 59.4473 -7.3203 Q58.9395 -7.7344 57.9551 -7.7344 Q56.9238 -7.7344 56.4551 -7.3594 Q55.9863 -6.9844 55.9863 -6.4531 Q55.9863 -5.9844 56.3145 -5.6875 Q56.6426 -5.3906 58.0254 -5.0781 Q59.4082 -4.7656 59.9238 -4.5312 Q60.6738 -4.1719 61.0332 -3.6484 Q61.3926 -3.125 61.3926 -2.4219 Q61.3926 -1.7344 61.002 -1.1328 Q60.6113 -0.5312 59.877 -0.1953 Q59.1426 0.1406 58.2207 0.1406 Q57.0488 0.1406 56.2598 -0.1953 Q55.4707 -0.5312 55.0254 -1.2188 Q54.5801 -1.9062 54.5645 -2.7656 ZM67.0684 -2 L68.1621 -1.875 Q67.9121 -0.9219 67.209 -0.3906 Q66.5059 0.1406 65.4277 0.1406 Q64.0684 0.1406 63.2637 -0.7031 Q62.459 -1.5469 62.459 -3.0625 Q62.459 -4.625 63.2715 -5.4922 Q64.084 -6.3594 65.3652 -6.3594 Q66.6152 -6.3594 67.4043 -5.5156 Q68.1934 -4.6719 68.1934 -3.125 Q68.1934 -3.0312 68.1934 -2.8438 L63.5527 -2.8438 Q63.6152 -1.8125 64.1309 -1.2734 Q64.6465 -0.7344 65.4277 -0.7344 Q66.0059 -0.7344 66.4199 -1.0391 Q66.834 -1.3438 67.0684 -2 ZM63.6152 -3.7031 L67.084 -3.7031 Q67.0215 -4.5 66.6934 -4.8906 Q66.1777 -5.5 65.3809 -5.5 Q64.6465 -5.5 64.1543 -5.0156 Q63.6621 -4.5312 63.6152 -3.7031 ZM69.4766 0 L69.4766 -6.2188 L70.4297 -6.2188 L70.4297 -5.2812 Q70.7891 -5.9375 71.0938 -6.1484 Q71.3984 -6.3594 71.7734 -6.3594 Q72.3047 -6.3594 72.8516 -6.0312 L72.4922 -5.0469 Q72.1016 -5.2812 71.7266 -5.2812 Q71.3672 -5.2812 71.0938 -5.0703 Q70.8203 -4.8594 70.7109 -4.4844 Q70.5234 -3.9219 70.5234 -3.2656 L70.5234 0 L69.4766 0 ZM75.207 0 L72.8477 -6.2188 L73.957 -6.2188 L75.3008 -2.5 Q75.5039 -1.8906 75.6914 -1.25 Q75.832 -1.7344 76.082 -2.4219 L77.4727 -6.2188 L78.5508 -6.2188 L76.1914 0 L75.207 0 ZM83.7383 -2 L84.832 -1.875 Q84.582 -0.9219 83.8789 -0.3906 Q83.1758 0.1406 82.0977 0.1406 Q80.7383 0.1406 79.9336 -0.7031 Q79.1289 -1.5469 79.1289 -3.0625 Q79.1289 -4.625 79.9414 -5.4922 Q80.7539 -6.3594 82.0352 -6.3594 Q83.2852 -6.3594 84.0742 -5.5156 Q84.8633 -4.6719 84.8633 -3.125 Q84.8633 -3.0312 84.8633 -2.8438 L80.2227 -2.8438 Q80.2852 -1.8125 80.8008 -1.2734 Q81.3164 -0.7344 82.0977 -0.7344 Q82.6758 -0.7344 83.0898 -1.0391 Q83.5039 -1.3438 83.7383 -2 ZM80.2852 -3.7031 L83.7539 -3.7031 Q83.6914 -4.5 83.3633 -4.8906 Q82.8477 -5.5 82.0508 -5.5 Q81.3164 -5.5 80.8242 -5.0156 Q80.332 -4.5312 80.2852 -3.7031 ZM86.1465 0 L86.1465 -6.2188 L87.0996 -6.2188 L87.0996 -5.2812 Q87.459 -5.9375 87.7637 -6.1484 Q88.0684 -6.3594 88.4434 -6.3594 Q88.9746 -6.3594 89.5215 -6.0312 L89.1621 -5.0469 Q88.7715 -5.2812 88.3965 -5.2812 Q88.0371 -5.2812 87.7637 -5.0703 Q87.4902 -4.8594 87.3809 -4.4844 Q87.1934 -3.9219 87.1934 -3.2656 L87.1934 0 L86.1465 0 Z" style="stroke:none; clip-path:url(#clipPath8);"
    /></g
    ><g transform="matrix(1.3333,0,0,1.3333,119.4933,100.125)" style="fill:rgb(255,255,204); text-rendering:geometricPrecision; font-family:sans-serif; shape-rendering:crispEdges; stroke:rgb(255,255,204); stroke-width:2;"
    ><rect x="-12.12" y="22" width="140" style="clip-path:url(#clipPath2); stroke:none;" height="46.1875"
      /><rect x="-12.12" y="22" width="140" style="clip-path:url(#clipPath2); fill:none; stroke:black;" height="46.1875"
      /><rect x="109.88" y="28" width="12" style="clip-path:url(#clipPath2); stroke:none; stroke-width:1;" height="14"
      /><rect x="109.88" y="28" width="12" style="clip-path:url(#clipPath2); fill:none; stroke:black; stroke-width:1;" height="14"
      /><rect x="107.88" y="36" width="6" style="clip-path:url(#clipPath2); stroke:none; stroke-width:1;" height="3"
      /><rect x="107.88" y="36" width="6" style="clip-path:url(#clipPath2); fill:none; stroke:black; stroke-width:1;" height="3"
      /><rect x="107.88" y="31" width="6" style="clip-path:url(#clipPath2); stroke:none; stroke-width:1;" height="3"
      /><rect x="107.88" y="31" width="6" style="clip-path:url(#clipPath2); fill:none; stroke:black; stroke-width:1;" height="3"
    /></g
    ><g style="font-family:sans-serif; text-rendering:optimizeLegibility;" transform="matrix(1.3333,0,0,1.3333,119.4933,100.125) translate(31.38,39)"
    ><path d="M0.9375 0 L0.9375 -8.5938 L4.75 -8.5938 Q5.9062 -8.5938 6.5 -8.3594 Q7.0938 -8.125 7.4531 -7.5391 Q7.8125 -6.9531 7.8125 -6.25 Q7.8125 -5.3281 7.2188 -4.7031 Q6.625 -4.0781 5.3906 -3.9062 Q5.8438 -3.6875 6.0781 -3.4844 Q6.5781 -3.0312 7.0156 -2.3438 L8.5156 0 L7.0781 0 L5.9531 -1.7812 Q5.4531 -2.5625 5.1328 -2.9688 Q4.8125 -3.375 4.5547 -3.5391 Q4.2969 -3.7031 4.0312 -3.7812 Q3.8438 -3.8125 3.4062 -3.8125 L2.0781 -3.8125 L2.0781 0 L0.9375 0 ZM2.0781 -4.7969 L4.5312 -4.7969 Q5.2969 -4.7969 5.7422 -4.9609 Q6.1875 -5.125 6.4141 -5.4766 Q6.6406 -5.8281 6.6406 -6.25 Q6.6406 -6.8594 6.1953 -7.25 Q5.75 -7.6406 4.7969 -7.6406 L2.0781 -7.6406 L2.0781 -4.7969 ZM13.7129 -2 L14.8066 -1.875 Q14.5566 -0.9219 13.8535 -0.3906 Q13.1504 0.1406 12.0723 0.1406 Q10.7129 0.1406 9.9082 -0.7031 Q9.1035 -1.5469 9.1035 -3.0625 Q9.1035 -4.625 9.916 -5.4922 Q10.7285 -6.3594 12.0098 -6.3594 Q13.2598 -6.3594 14.0488 -5.5156 Q14.8379 -4.6719 14.8379 -3.125 Q14.8379 -3.0312 14.8379 -2.8438 L10.1973 -2.8438 Q10.2598 -1.8125 10.7754 -1.2734 Q11.291 -0.7344 12.0723 -0.7344 Q12.6504 -0.7344 13.0645 -1.0391 Q13.4785 -1.3438 13.7129 -2 ZM10.2598 -3.7031 L13.7285 -3.7031 Q13.666 -4.5 13.3379 -4.8906 Q12.8223 -5.5 12.0254 -5.5 Q11.291 -5.5 10.7988 -5.0156 Q10.3066 -4.5312 10.2598 -3.7031 ZM20.1992 -0.7656 Q19.6055 -0.2656 19.0664 -0.0625 Q18.5273 0.1406 17.9023 0.1406 Q16.8711 0.1406 16.3242 -0.3594 Q15.7773 -0.8594 15.7773 -1.6406 Q15.7773 -2.0938 15.9805 -2.4766 Q16.1836 -2.8594 16.5273 -3.0859 Q16.8711 -3.3125 17.293 -3.4219 Q17.5898 -3.5156 18.2305 -3.5938 Q19.4961 -3.7344 20.1055 -3.9531 Q20.1055 -4.1719 20.1055 -4.2188 Q20.1055 -4.875 19.8086 -5.1406 Q19.4023 -5.4844 18.6055 -5.4844 Q17.8711 -5.4844 17.5117 -5.2266 Q17.1523 -4.9688 16.9805 -4.3125 L15.9492 -4.4531 Q16.0898 -5.1094 16.418 -5.5156 Q16.7461 -5.9219 17.3555 -6.1406 Q17.9648 -6.3594 18.7617 -6.3594 Q19.5586 -6.3594 20.0586 -6.1719 Q20.5586 -5.9844 20.793 -5.7031 Q21.0273 -5.4219 21.1211 -4.9844 Q21.168 -4.7188 21.168 -4.0156 L21.168 -2.6094 Q21.168 -1.1406 21.2383 -0.75 Q21.3086 -0.3594 21.5117 0 L20.4023 0 Q20.2461 -0.3281 20.1992 -0.7656 ZM20.1055 -3.125 Q19.5273 -2.8906 18.3867 -2.7188 Q17.7305 -2.625 17.4648 -2.5078 Q17.1992 -2.3906 17.0508 -2.1719 Q16.9023 -1.9531 16.9023 -1.6719 Q16.9023 -1.25 17.2227 -0.9688 Q17.543 -0.6875 18.1523 -0.6875 Q18.7617 -0.6875 19.2383 -0.9531 Q19.7148 -1.2188 19.9336 -1.6875 Q20.1055 -2.0469 20.1055 -2.7344 L20.1055 -3.125 ZM22.7793 0 L22.7793 -8.5938 L23.8418 -8.5938 L23.8418 0 L22.7793 0 ZM31.1074 -0.9375 L31.2637 -0.0156 Q30.8105 0.0781 30.4668 0.0781 Q29.8887 0.0781 29.5762 -0.1016 Q29.2637 -0.2812 29.1309 -0.5781 Q28.998 -0.875 28.998 -1.8281 L28.998 -5.4062 L28.2324 -5.4062 L28.2324 -6.2188 L28.998 -6.2188 L28.998 -7.7656 L30.0449 -8.3906 L30.0449 -6.2188 L31.1074 -6.2188 L31.1074 -5.4062 L30.0449 -5.4062 L30.0449 -1.7656 Q30.0449 -1.3125 30.0996 -1.1875 Q30.1543 -1.0625 30.2793 -0.9844 Q30.4043 -0.9062 30.6387 -0.9062 Q30.8262 -0.9062 31.1074 -0.9375 ZM32.1445 -7.375 L32.1445 -8.5938 L33.207 -8.5938 L33.207 -7.375 L32.1445 -7.375 ZM32.1445 0 L32.1445 -6.2188 L33.207 -6.2188 L33.207 0 L32.1445 0 ZM34.8105 0 L34.8105 -6.2188 L35.748 -6.2188 L35.748 -5.3438 Q36.0449 -5.8125 36.5293 -6.0859 Q37.0137 -6.3594 37.6387 -6.3594 Q38.3262 -6.3594 38.7715 -6.0781 Q39.2168 -5.7969 39.3887 -5.2812 Q40.1387 -6.3594 41.3105 -6.3594 Q42.248 -6.3594 42.7402 -5.8516 Q43.2324 -5.3438 43.2324 -4.2656 L43.2324 0 L42.1855 0 L42.1855 -3.9219 Q42.1855 -4.5469 42.084 -4.8281 Q41.9824 -5.1094 41.7168 -5.2812 Q41.4512 -5.4531 41.0762 -5.4531 Q40.4199 -5.4531 39.9902 -5.0156 Q39.5605 -4.5781 39.5605 -3.6094 L39.5605 0 L38.498 0 L38.498 -4.0469 Q38.498 -4.75 38.2402 -5.1016 Q37.9824 -5.4531 37.4043 -5.4531 Q36.9512 -5.4531 36.5762 -5.2188 Q36.2012 -4.9844 36.0293 -4.5312 Q35.8574 -4.0781 35.8574 -3.2344 L35.8574 0 L34.8105 0 ZM49.0566 -2 L50.1504 -1.875 Q49.9004 -0.9219 49.1973 -0.3906 Q48.4941 0.1406 47.416 0.1406 Q46.0566 0.1406 45.252 -0.7031 Q44.4473 -1.5469 44.4473 -3.0625 Q44.4473 -4.625 45.2598 -5.4922 Q46.0723 -6.3594 47.3535 -6.3594 Q48.6035 -6.3594 49.3926 -5.5156 Q50.1816 -4.6719 50.1816 -3.125 Q50.1816 -3.0312 50.1816 -2.8438 L45.541 -2.8438 Q45.6035 -1.8125 46.1191 -1.2734 Q46.6348 -0.7344 47.416 -0.7344 Q47.9941 -0.7344 48.4082 -1.0391 Q48.8223 -1.3438 49.0566 -2 ZM45.6035 -3.7031 L49.0723 -3.7031 Q49.0098 -4.5 48.6816 -4.8906 Q48.166 -5.5 47.3691 -5.5 Q46.6348 -5.5 46.1426 -5.0156 Q45.6504 -4.5312 45.6035 -3.7031 Z" style="stroke:none; clip-path:url(#clipPath9);"
    /></g
    ><g style="font-family:sans-serif; text-rendering:optimizeLegibility;" transform="matrix(1.3333,0,0,1.3333,119.4933,100.125)"
    ><line x1="57.5132" x2="57.6021" y1="248" style="fill:none; clip-path:url(#clipPath2);" y2="93.1875"
      /><line x1="138.9625" x2="315.88" y1="93.1875" style="fill:none; clip-path:url(#clipPath2);" y2="198.8904"
      /><polygon style="fill:rgb(255,255,204); stroke-width:2; clip-path:url(#clipPath2); stroke:none;" points=" 694 240 698 236 802 236 802 282 798 286 694 286"
      /><polygon style="fill:none; stroke-width:2; clip-path:url(#clipPath2);" points=" 694 240 698 236 802 236 802 282 798 286 694 286"
      /><line x1="798" x2="801" y1="240" style="clip-path:url(#clipPath2); fill:none; stroke-width:2;" y2="237"
      /><line x1="694" x2="798" y1="240" style="clip-path:url(#clipPath2); fill:none; stroke-width:2;" y2="240"
      /><line x1="798" x2="798" y1="240" style="clip-path:url(#clipPath2); fill:none; stroke-width:2;" y2="286"
    /></g
    ><g style="text-rendering:optimizeLegibility; stroke-width:2; font-family:sans-serif;" transform="matrix(1.3333,0,0,1.3333,119.4933,100.125) translate(704,257)"
    ><path d="M0.9844 0 L0.9844 -8.5938 L6.7812 -8.5938 L6.7812 -7.5781 L2.125 -7.5781 L2.125 -4.9219 L6.1562 -4.9219 L6.1562 -3.9062 L2.125 -3.9062 L2.125 0 L0.9844 0 ZM8.127 -7.375 L8.127 -8.5938 L9.1895 -8.5938 L9.1895 -7.375 L8.127 -7.375 ZM8.127 0 L8.127 -6.2188 L9.1895 -6.2188 L9.1895 0 L8.127 0 ZM10.7617 0 L10.7617 -8.5938 L11.8242 -8.5938 L11.8242 0 L10.7617 0 ZM17.709 -2 L18.8027 -1.875 Q18.5527 -0.9219 17.8496 -0.3906 Q17.1465 0.1406 16.0684 0.1406 Q14.709 0.1406 13.9043 -0.7031 Q13.0996 -1.5469 13.0996 -3.0625 Q13.0996 -4.625 13.9121 -5.4922 Q14.7246 -6.3594 16.0059 -6.3594 Q17.2559 -6.3594 18.0449 -5.5156 Q18.834 -4.6719 18.834 -3.125 Q18.834 -3.0312 18.834 -2.8438 L14.1934 -2.8438 Q14.2559 -1.8125 14.7715 -1.2734 Q15.2871 -0.7344 16.0684 -0.7344 Q16.6465 -0.7344 17.0605 -1.0391 Q17.4746 -1.3438 17.709 -2 ZM14.2559 -3.7031 L17.7246 -3.7031 Q17.6621 -4.5 17.334 -4.8906 Q16.8184 -5.5 16.0215 -5.5 Q15.2871 -5.5 14.7949 -5.0156 Q14.3027 -4.5312 14.2559 -3.7031 ZM23.2168 -2.7656 L24.2793 -2.8594 Q24.3574 -2.2031 24.6387 -1.7969 Q24.9199 -1.3906 25.5059 -1.1328 Q26.0918 -0.875 26.8262 -0.875 Q27.4668 -0.875 27.9668 -1.0703 Q28.4668 -1.2656 28.709 -1.6016 Q28.9512 -1.9375 28.9512 -2.3281 Q28.9512 -2.7344 28.7168 -3.0391 Q28.4824 -3.3438 27.9512 -3.5469 Q27.5918 -3.6875 26.4121 -3.9688 Q25.2324 -4.25 24.7637 -4.5 Q24.1387 -4.8281 23.8418 -5.3047 Q23.5449 -5.7812 23.5449 -6.375 Q23.5449 -7.0156 23.9121 -7.5859 Q24.2793 -8.1562 24.9902 -8.4453 Q25.7012 -8.7344 26.5605 -8.7344 Q27.5137 -8.7344 28.248 -8.4297 Q28.9824 -8.125 29.373 -7.5234 Q29.7637 -6.9219 29.7949 -6.1719 L28.7012 -6.0938 Q28.6074 -6.9062 28.0996 -7.3203 Q27.5918 -7.7344 26.6074 -7.7344 Q25.5762 -7.7344 25.1074 -7.3594 Q24.6387 -6.9844 24.6387 -6.4531 Q24.6387 -5.9844 24.9668 -5.6875 Q25.2949 -5.3906 26.6777 -5.0781 Q28.0605 -4.7656 28.5762 -4.5312 Q29.3262 -4.1719 29.6855 -3.6484 Q30.0449 -3.125 30.0449 -2.4219 Q30.0449 -1.7344 29.6543 -1.1328 Q29.2637 -0.5312 28.5293 -0.1953 Q27.7949 0.1406 26.873 0.1406 Q25.7012 0.1406 24.9121 -0.1953 Q24.123 -0.5312 23.6777 -1.2188 Q23.2324 -1.9062 23.2168 -2.7656 ZM31.4238 2.3906 L31.2988 1.4062 Q31.6426 1.5 31.9082 1.5 Q32.252 1.5 32.4629 1.3828 Q32.6738 1.2656 32.8145 1.0625 Q32.9082 0.8906 33.1426 0.2656 Q33.1582 0.1875 33.2363 0.0156 L30.8613 -6.2188 L32.002 -6.2188 L33.2988 -2.625 Q33.5488 -1.9375 33.752 -1.1719 Q33.9395 -1.9062 34.1895 -2.5938 L35.5176 -6.2188 L36.5645 -6.2188 L34.2051 0.1094 Q33.8145 1.125 33.6113 1.5156 Q33.3301 2.0469 32.9629 2.2891 Q32.5957 2.5312 32.0957 2.5312 Q31.7988 2.5312 31.4238 2.3906 ZM37.0488 -1.8594 L38.0801 -2.0156 Q38.1738 -1.3906 38.5723 -1.0625 Q38.9707 -0.7344 39.7051 -0.7344 Q40.4238 -0.7344 40.7754 -1.0234 Q41.127 -1.3125 41.127 -1.7188 Q41.127 -2.0781 40.8145 -2.2812 Q40.5957 -2.4219 39.7363 -2.6406 Q38.5801 -2.9375 38.1348 -3.1484 Q37.6895 -3.3594 37.4551 -3.7344 Q37.2207 -4.1094 37.2207 -4.5781 Q37.2207 -4.9844 37.4082 -5.3438 Q37.5957 -5.7031 37.9238 -5.9375 Q38.1738 -6.1094 38.5957 -6.2344 Q39.0176 -6.3594 39.5176 -6.3594 Q40.2363 -6.3594 40.791 -6.1484 Q41.3457 -5.9375 41.6113 -5.5781 Q41.877 -5.2188 41.9707 -4.625 L40.9395 -4.4844 Q40.877 -4.9531 40.541 -5.2266 Q40.2051 -5.5 39.5801 -5.5 Q38.8613 -5.5 38.5488 -5.2578 Q38.2363 -5.0156 38.2363 -4.6875 Q38.2363 -4.4844 38.3613 -4.3281 Q38.502 -4.1562 38.7676 -4.0469 Q38.9238 -3.9844 39.7051 -3.7812 Q40.8301 -3.4688 41.2676 -3.2812 Q41.7051 -3.0938 41.9551 -2.7344 Q42.2051 -2.375 42.2051 -1.8281 Q42.2051 -1.2969 41.9004 -0.8359 Q41.5957 -0.375 41.0176 -0.1172 Q40.4395 0.1406 39.7051 0.1406 Q38.4863 0.1406 37.8535 -0.3672 Q37.2207 -0.875 37.0488 -1.8594 ZM45.7676 -0.9375 L45.9238 -0.0156 Q45.4707 0.0781 45.127 0.0781 Q44.5488 0.0781 44.2363 -0.1016 Q43.9238 -0.2812 43.791 -0.5781 Q43.6582 -0.875 43.6582 -1.8281 L43.6582 -5.4062 L42.8926 -5.4062 L42.8926 -6.2188 L43.6582 -6.2188 L43.6582 -7.7656 L44.7051 -8.3906 L44.7051 -6.2188 L45.7676 -6.2188 L45.7676 -5.4062 L44.7051 -5.4062 L44.7051 -1.7656 Q44.7051 -1.3125 44.7598 -1.1875 Q44.8145 -1.0625 44.9395 -0.9844 Q45.0645 -0.9062 45.2988 -0.9062 Q45.4863 -0.9062 45.7676 -0.9375 ZM51.0547 -2 L52.1484 -1.875 Q51.8984 -0.9219 51.1953 -0.3906 Q50.4922 0.1406 49.4141 0.1406 Q48.0547 0.1406 47.25 -0.7031 Q46.4453 -1.5469 46.4453 -3.0625 Q46.4453 -4.625 47.2578 -5.4922 Q48.0703 -6.3594 49.3516 -6.3594 Q50.6016 -6.3594 51.3906 -5.5156 Q52.1797 -4.6719 52.1797 -3.125 Q52.1797 -3.0312 52.1797 -2.8438 L47.5391 -2.8438 Q47.6016 -1.8125 48.1172 -1.2734 Q48.6328 -0.7344 49.4141 -0.7344 Q49.9922 -0.7344 50.4062 -1.0391 Q50.8203 -1.3438 51.0547 -2 ZM47.6016 -3.7031 L51.0703 -3.7031 Q51.0078 -4.5 50.6797 -4.8906 Q50.1641 -5.5 49.3672 -5.5 Q48.6328 -5.5 48.1406 -5.0156 Q47.6484 -4.5312 47.6016 -3.7031 ZM53.4785 0 L53.4785 -6.2188 L54.416 -6.2188 L54.416 -5.3438 Q54.7129 -5.8125 55.1973 -6.0859 Q55.6816 -6.3594 56.3066 -6.3594 Q56.9941 -6.3594 57.4395 -6.0781 Q57.8848 -5.7969 58.0566 -5.2812 Q58.8066 -6.3594 59.9785 -6.3594 Q60.916 -6.3594 61.4082 -5.8516 Q61.9004 -5.3438 61.9004 -4.2656 L61.9004 0 L60.8535 0 L60.8535 -3.9219 Q60.8535 -4.5469 60.752 -4.8281 Q60.6504 -5.1094 60.3848 -5.2812 Q60.1191 -5.4531 59.7441 -5.4531 Q59.0879 -5.4531 58.6582 -5.0156 Q58.2285 -4.5781 58.2285 -3.6094 L58.2285 0 L57.166 0 L57.166 -4.0469 Q57.166 -4.75 56.9082 -5.1016 Q56.6504 -5.4531 56.0723 -5.4531 Q55.6191 -5.4531 55.2441 -5.2188 Q54.8691 -4.9844 54.6973 -4.5312 Q54.5254 -4.0781 54.5254 -3.2344 L54.5254 0 L53.4785 0 Z" style="stroke:none; clip-path:url(#clipPath10);"
    /></g
    ><g style="font-family:sans-serif; text-rendering:optimizeLegibility;" transform="matrix(1.3333,0,0,1.3333,119.4933,100.125)"
    ><line x1="694.2774" x2="532.1574" y1="263.12" style="fill:none; clip-path:url(#clipPath2);" y2="263.3479"
      /><polygon style="fill:rgb(255,255,204); stroke-width:2; clip-path:url(#clipPath2); stroke:none;" points=" 257 -4 261 -8 594 -8 594 86 590 90 257 90"
      /><polygon style="fill:none; stroke-width:2; clip-path:url(#clipPath2);" points=" 257 -4 261 -8 594 -8 594 86 590 90 257 90"
      /><line x1="590" x2="593" y1="-4" style="clip-path:url(#clipPath2); fill:none; stroke-width:2;" y2="-7"
      /><line x1="257" x2="590" y1="-4" style="clip-path:url(#clipPath2); fill:none; stroke-width:2;" y2="-4"
      /><line x1="590" x2="590" y1="-4" style="clip-path:url(#clipPath2); fill:none; stroke-width:2;" y2="90"
    /></g
    ><g style="text-rendering:optimizeLegibility; stroke-width:2; font-family:sans-serif;" transform="matrix(1.3333,0,0,1.3333,119.4933,100.125) translate(267,13)"
    ><path d="M0.9219 0 L0.9219 -8.5938 L4.1719 -8.5938 Q5.0156 -8.5938 5.4688 -8.5156 Q6.1094 -8.4062 6.5391 -8.1094 Q6.9688 -7.8125 7.2266 -7.2812 Q7.4844 -6.75 7.4844 -6.1094 Q7.4844 -5.0156 6.7891 -4.2578 Q6.0938 -3.5 4.2656 -3.5 L2.0625 -3.5 L2.0625 0 L0.9219 0 ZM2.0625 -4.5 L4.2812 -4.5 Q5.3906 -4.5 5.8516 -4.9141 Q6.3125 -5.3281 6.3125 -6.0781 Q6.3125 -6.6094 6.0391 -6.9922 Q5.7656 -7.375 5.3281 -7.5 Q5.0312 -7.5781 4.2656 -7.5781 L2.0625 -7.5781 L2.0625 -4.5 ZM13.0508 -2 L14.1445 -1.875 Q13.8945 -0.9219 13.1914 -0.3906 Q12.4883 0.1406 11.4102 0.1406 Q10.0508 0.1406 9.2461 -0.7031 Q8.4414 -1.5469 8.4414 -3.0625 Q8.4414 -4.625 9.2539 -5.4922 Q10.0664 -6.3594 11.3477 -6.3594 Q12.5977 -6.3594 13.3867 -5.5156 Q14.1758 -4.6719 14.1758 -3.125 Q14.1758 -3.0312 14.1758 -2.8438 L9.5352 -2.8438 Q9.5977 -1.8125 10.1133 -1.2734 Q10.6289 -0.7344 11.4102 -0.7344 Q11.9883 -0.7344 12.4023 -1.0391 Q12.8164 -1.3438 13.0508 -2 ZM9.5977 -3.7031 L13.0664 -3.7031 Q13.0039 -4.5 12.6758 -4.8906 Q12.1602 -5.5 11.3633 -5.5 Q10.6289 -5.5 10.1367 -5.0156 Q9.6445 -4.5312 9.5977 -3.7031 ZM15.459 0 L15.459 -6.2188 L16.4121 -6.2188 L16.4121 -5.2812 Q16.7715 -5.9375 17.0762 -6.1484 Q17.3809 -6.3594 17.7559 -6.3594 Q18.2871 -6.3594 18.834 -6.0312 L18.4746 -5.0469 Q18.084 -5.2812 17.709 -5.2812 Q17.3496 -5.2812 17.0762 -5.0703 Q16.8027 -4.8594 16.6934 -4.4844 Q16.5059 -3.9219 16.5059 -3.2656 L16.5059 0 L15.459 0 ZM19.0488 -1.8594 L20.0801 -2.0156 Q20.1738 -1.3906 20.5723 -1.0625 Q20.9707 -0.7344 21.7051 -0.7344 Q22.4238 -0.7344 22.7754 -1.0234 Q23.127 -1.3125 23.127 -1.7188 Q23.127 -2.0781 22.8145 -2.2812 Q22.5957 -2.4219 21.7363 -2.6406 Q20.5801 -2.9375 20.1348 -3.1484 Q19.6895 -3.3594 19.4551 -3.7344 Q19.2207 -4.1094 19.2207 -4.5781 Q19.2207 -4.9844 19.4082 -5.3438 Q19.5957 -5.7031 19.9238 -5.9375 Q20.1738 -6.1094 20.5957 -6.2344 Q21.0176 -6.3594 21.5176 -6.3594 Q22.2363 -6.3594 22.791 -6.1484 Q23.3457 -5.9375 23.6113 -5.5781 Q23.877 -5.2188 23.9707 -4.625 L22.9395 -4.4844 Q22.877 -4.9531 22.541 -5.2266 Q22.2051 -5.5 21.5801 -5.5 Q20.8613 -5.5 20.5488 -5.2578 Q20.2363 -5.0156 20.2363 -4.6875 Q20.2363 -4.4844 20.3613 -4.3281 Q20.502 -4.1562 20.7676 -4.0469 Q20.9238 -3.9844 21.7051 -3.7812 Q22.8301 -3.4688 23.2676 -3.2812 Q23.7051 -3.0938 23.9551 -2.7344 Q24.2051 -2.375 24.2051 -1.8281 Q24.2051 -1.2969 23.9004 -0.8359 Q23.5957 -0.375 23.0176 -0.1172 Q22.4395 0.1406 21.7051 0.1406 Q20.4863 0.1406 19.8535 -0.3672 Q19.2207 -0.875 19.0488 -1.8594 ZM25.4707 -7.375 L25.4707 -8.5938 L26.5332 -8.5938 L26.5332 -7.375 L25.4707 -7.375 ZM25.4707 0 L25.4707 -6.2188 L26.5332 -6.2188 L26.5332 0 L25.4707 0 ZM27.7148 -1.8594 L28.7461 -2.0156 Q28.8398 -1.3906 29.2383 -1.0625 Q29.6367 -0.7344 30.3711 -0.7344 Q31.0898 -0.7344 31.4414 -1.0234 Q31.793 -1.3125 31.793 -1.7188 Q31.793 -2.0781 31.4805 -2.2812 Q31.2617 -2.4219 30.4023 -2.6406 Q29.2461 -2.9375 28.8008 -3.1484 Q28.3555 -3.3594 28.1211 -3.7344 Q27.8867 -4.1094 27.8867 -4.5781 Q27.8867 -4.9844 28.0742 -5.3438 Q28.2617 -5.7031 28.5898 -5.9375 Q28.8398 -6.1094 29.2617 -6.2344 Q29.6836 -6.3594 30.1836 -6.3594 Q30.9023 -6.3594 31.457 -6.1484 Q32.0117 -5.9375 32.2773 -5.5781 Q32.543 -5.2188 32.6367 -4.625 L31.6055 -4.4844 Q31.543 -4.9531 31.207 -5.2266 Q30.8711 -5.5 30.2461 -5.5 Q29.5273 -5.5 29.2148 -5.2578 Q28.9023 -5.0156 28.9023 -4.6875 Q28.9023 -4.4844 29.0273 -4.3281 Q29.168 -4.1562 29.4336 -4.0469 Q29.5898 -3.9844 30.3711 -3.7812 Q31.4961 -3.4688 31.9336 -3.2812 Q32.3711 -3.0938 32.6211 -2.7344 Q32.8711 -2.375 32.8711 -1.8281 Q32.8711 -1.2969 32.5664 -0.8359 Q32.2617 -0.375 31.6836 -0.1172 Q31.1055 0.1406 30.3711 0.1406 Q29.1523 0.1406 28.5195 -0.3672 Q27.8867 -0.875 27.7148 -1.8594 ZM36.4336 -0.9375 L36.5898 -0.0156 Q36.1367 0.0781 35.793 0.0781 Q35.2148 0.0781 34.9023 -0.1016 Q34.5898 -0.2812 34.457 -0.5781 Q34.3242 -0.875 34.3242 -1.8281 L34.3242 -5.4062 L33.5586 -5.4062 L33.5586 -6.2188 L34.3242 -6.2188 L34.3242 -7.7656 L35.3711 -8.3906 L35.3711 -6.2188 L36.4336 -6.2188 L36.4336 -5.4062 L35.3711 -5.4062 L35.3711 -1.7656 Q35.3711 -1.3125 35.4258 -1.1875 Q35.4805 -1.0625 35.6055 -0.9844 Q35.7305 -0.9062 35.9648 -0.9062 Q36.1523 -0.9062 36.4336 -0.9375 ZM41.7207 -2 L42.8145 -1.875 Q42.5645 -0.9219 41.8613 -0.3906 Q41.1582 0.1406 40.0801 0.1406 Q38.7207 0.1406 37.916 -0.7031 Q37.1113 -1.5469 37.1113 -3.0625 Q37.1113 -4.625 37.9238 -5.4922 Q38.7363 -6.3594 40.0176 -6.3594 Q41.2676 -6.3594 42.0566 -5.5156 Q42.8457 -4.6719 42.8457 -3.125 Q42.8457 -3.0312 42.8457 -2.8438 L38.2051 -2.8438 Q38.2676 -1.8125 38.7832 -1.2734 Q39.2988 -0.7344 40.0801 -0.7344 Q40.6582 -0.7344 41.0723 -1.0391 Q41.4863 -1.3438 41.7207 -2 ZM38.2676 -3.7031 L41.7363 -3.7031 Q41.6738 -4.5 41.3457 -4.8906 Q40.8301 -5.5 40.0332 -5.5 Q39.2988 -5.5 38.8066 -5.0156 Q38.3145 -4.5312 38.2676 -3.7031 ZM44.1445 0 L44.1445 -6.2188 L45.082 -6.2188 L45.082 -5.3438 Q45.7695 -6.3594 47.0664 -6.3594 Q47.6289 -6.3594 48.1055 -6.1562 Q48.582 -5.9531 48.8164 -5.625 Q49.0508 -5.2969 49.1445 -4.8594 Q49.1914 -4.5625 49.1914 -3.8281 L49.1914 0 L48.1445 0 L48.1445 -3.7812 Q48.1445 -4.4375 48.0195 -4.75 Q47.8945 -5.0625 47.582 -5.2578 Q47.2695 -5.4531 46.8477 -5.4531 Q46.1758 -5.4531 45.6836 -5.0234 Q45.1914 -4.5938 45.1914 -3.4062 L45.1914 0 L44.1445 0 ZM54.8809 -2.2812 L55.9121 -2.1406 Q55.7402 -1.0781 55.0371 -0.4688 Q54.334 0.1406 53.3184 0.1406 Q52.0371 0.1406 51.2637 -0.6953 Q50.4902 -1.5312 50.4902 -3.0938 Q50.4902 -4.0938 50.8262 -4.8516 Q51.1621 -5.6094 51.8418 -5.9844 Q52.5215 -6.3594 53.334 -6.3594 Q54.334 -6.3594 54.9824 -5.8516 Q55.6309 -5.3438 55.8184 -4.3906 L54.7871 -4.2344 Q54.6465 -4.8594 54.2715 -5.1797 Q53.8965 -5.5 53.3652 -5.5 Q52.5684 -5.5 52.0684 -4.9297 Q51.5684 -4.3594 51.5684 -3.125 Q51.5684 -1.8594 52.0527 -1.2969 Q52.5371 -0.7344 53.3027 -0.7344 Q53.9277 -0.7344 54.3418 -1.1094 Q54.7559 -1.4844 54.8809 -2.2812 ZM61.0684 -2 L62.1621 -1.875 Q61.9121 -0.9219 61.209 -0.3906 Q60.5059 0.1406 59.4277 0.1406 Q58.0684 0.1406 57.2637 -0.7031 Q56.459 -1.5469 56.459 -3.0625 Q56.459 -4.625 57.2715 -5.4922 Q58.084 -6.3594 59.3652 -6.3594 Q60.6152 -6.3594 61.4043 -5.5156 Q62.1934 -4.6719 62.1934 -3.125 Q62.1934 -3.0312 62.1934 -2.8438 L57.5527 -2.8438 Q57.6152 -1.8125 58.1309 -1.2734 Q58.6465 -0.7344 59.4277 -0.7344 Q60.0059 -0.7344 60.4199 -1.0391 Q60.834 -1.3438 61.0684 -2 ZM57.6152 -3.7031 L61.084 -3.7031 Q61.0215 -4.5 60.6934 -4.8906 Q60.1777 -5.5 59.3809 -5.5 Q58.6465 -5.5 58.1543 -5.0156 Q57.6621 -4.5312 57.6152 -3.7031 Z" style="stroke:none; clip-path:url(#clipPath11);"
    /></g
    ><g transform="matrix(1.3333,0,0,1.3333,119.4933,100.125)" style="fill:rgb(255,255,204); text-rendering:geometricPrecision; font-family:sans-serif; shape-rendering:crispEdges; stroke:rgb(255,255,204); stroke-width:2;"
    ><rect x="435.2774" y="29" width="140" style="clip-path:url(#clipPath2); stroke:none;" height="46.1875"
      /><rect x="435.2774" y="29" width="140" style="clip-path:url(#clipPath2); fill:none; stroke:black;" height="46.1875"
      /><rect x="557.2774" y="35" width="12" style="clip-path:url(#clipPath2); stroke:none; stroke-width:1;" height="14"
      /><rect x="557.2774" y="35" width="12" style="clip-path:url(#clipPath2); fill:none; stroke:black; stroke-width:1;" height="14"
      /><rect x="555.2774" y="43" width="6" style="clip-path:url(#clipPath2); stroke:none; stroke-width:1;" height="3"
      /><rect x="555.2774" y="43" width="6" style="clip-path:url(#clipPath2); fill:none; stroke:black; stroke-width:1;" height="3"
      /><rect x="555.2774" y="38" width="6" style="clip-path:url(#clipPath2); stroke:none; stroke-width:1;" height="3"
      /><rect x="555.2774" y="38" width="6" style="clip-path:url(#clipPath2); fill:none; stroke:black; stroke-width:1;" height="3"
    /></g
    ><g style="font-family:sans-serif; text-rendering:optimizeLegibility;" transform="matrix(1.3333,0,0,1.3333,119.4933,100.125) translate(487.2774,46)"
    ><path d="M7.0625 -3.0156 L8.1875 -2.7188 Q7.8281 -1.3281 6.9062 -0.5938 Q5.9844 0.1406 4.6406 0.1406 Q3.25 0.1406 2.375 -0.4219 Q1.5 -0.9844 1.0469 -2.0547 Q0.5938 -3.125 0.5938 -4.3594 Q0.5938 -5.7031 1.1094 -6.7031 Q1.625 -7.7031 2.5703 -8.2188 Q3.5156 -8.7344 4.6562 -8.7344 Q5.9375 -8.7344 6.8203 -8.0781 Q7.7031 -7.4219 8.0469 -6.2344 L6.9219 -5.9688 Q6.625 -6.9062 6.0547 -7.3359 Q5.4844 -7.7656 4.625 -7.7656 Q3.6406 -7.7656 2.9766 -7.2891 Q2.3125 -6.8125 2.0391 -6.0156 Q1.7656 -5.2188 1.7656 -4.3594 Q1.7656 -3.2656 2.0859 -2.4531 Q2.4062 -1.6406 3.0781 -1.2344 Q3.75 -0.8281 4.5469 -0.8281 Q5.5 -0.8281 6.1641 -1.375 Q6.8281 -1.9219 7.0625 -3.0156 ZM13.5254 -0.7656 Q12.9316 -0.2656 12.3926 -0.0625 Q11.8535 0.1406 11.2285 0.1406 Q10.1973 0.1406 9.6504 -0.3594 Q9.1035 -0.8594 9.1035 -1.6406 Q9.1035 -2.0938 9.3066 -2.4766 Q9.5098 -2.8594 9.8535 -3.0859 Q10.1973 -3.3125 10.6191 -3.4219 Q10.916 -3.5156 11.5566 -3.5938 Q12.8223 -3.7344 13.4316 -3.9531 Q13.4316 -4.1719 13.4316 -4.2188 Q13.4316 -4.875 13.1348 -5.1406 Q12.7285 -5.4844 11.9316 -5.4844 Q11.1973 -5.4844 10.8379 -5.2266 Q10.4785 -4.9688 10.3066 -4.3125 L9.2754 -4.4531 Q9.416 -5.1094 9.7441 -5.5156 Q10.0723 -5.9219 10.6816 -6.1406 Q11.291 -6.3594 12.0879 -6.3594 Q12.8848 -6.3594 13.3848 -6.1719 Q13.8848 -5.9844 14.1191 -5.7031 Q14.3535 -5.4219 14.4473 -4.9844 Q14.4941 -4.7188 14.4941 -4.0156 L14.4941 -2.6094 Q14.4941 -1.1406 14.5645 -0.75 Q14.6348 -0.3594 14.8379 0 L13.7285 0 Q13.5723 -0.3281 13.5254 -0.7656 ZM13.4316 -3.125 Q12.8535 -2.8906 11.7129 -2.7188 Q11.0566 -2.625 10.791 -2.5078 Q10.5254 -2.3906 10.377 -2.1719 Q10.2285 -1.9531 10.2285 -1.6719 Q10.2285 -1.25 10.5488 -0.9688 Q10.8691 -0.6875 11.4785 -0.6875 Q12.0879 -0.6875 12.5645 -0.9531 Q13.041 -1.2188 13.2598 -1.6875 Q13.4316 -2.0469 13.4316 -2.7344 L13.4316 -3.125 ZM20.1992 -2.2812 L21.2305 -2.1406 Q21.0586 -1.0781 20.3555 -0.4688 Q19.6523 0.1406 18.6367 0.1406 Q17.3555 0.1406 16.582 -0.6953 Q15.8086 -1.5312 15.8086 -3.0938 Q15.8086 -4.0938 16.1445 -4.8516 Q16.4805 -5.6094 17.1602 -5.9844 Q17.8398 -6.3594 18.6523 -6.3594 Q19.6523 -6.3594 20.3008 -5.8516 Q20.9492 -5.3438 21.1367 -4.3906 L20.1055 -4.2344 Q19.9648 -4.8594 19.5898 -5.1797 Q19.2148 -5.5 18.6836 -5.5 Q17.8867 -5.5 17.3867 -4.9297 Q16.8867 -4.3594 16.8867 -3.125 Q16.8867 -1.8594 17.3711 -1.2969 Q17.8555 -0.7344 18.6211 -0.7344 Q19.2461 -0.7344 19.6602 -1.1094 Q20.0742 -1.4844 20.1992 -2.2812 ZM22.1367 0 L22.1367 -8.5938 L23.1836 -8.5938 L23.1836 -5.5156 Q23.918 -6.3594 25.043 -6.3594 Q25.7461 -6.3594 26.2539 -6.0859 Q26.7617 -5.8125 26.9805 -5.3359 Q27.1992 -4.8594 27.1992 -3.9375 L27.1992 0 L26.1523 0 L26.1523 -3.9375 Q26.1523 -4.7344 25.8086 -5.0938 Q25.4648 -5.4531 24.8398 -5.4531 Q24.3711 -5.4531 23.957 -5.2109 Q23.543 -4.9688 23.3633 -4.5547 Q23.1836 -4.1406 23.1836 -3.4062 L23.1836 0 L22.1367 0 ZM33.0605 -2 L34.1543 -1.875 Q33.9043 -0.9219 33.2012 -0.3906 Q32.498 0.1406 31.4199 0.1406 Q30.0605 0.1406 29.2559 -0.7031 Q28.4512 -1.5469 28.4512 -3.0625 Q28.4512 -4.625 29.2637 -5.4922 Q30.0762 -6.3594 31.3574 -6.3594 Q32.6074 -6.3594 33.3965 -5.5156 Q34.1855 -4.6719 34.1855 -3.125 Q34.1855 -3.0312 34.1855 -2.8438 L29.5449 -2.8438 Q29.6074 -1.8125 30.123 -1.2734 Q30.6387 -0.7344 31.4199 -0.7344 Q31.998 -0.7344 32.4121 -1.0391 Q32.8262 -1.3438 33.0605 -2 ZM29.6074 -3.7031 L33.0762 -3.7031 Q33.0137 -4.5 32.6855 -4.8906 Q32.1699 -5.5 31.373 -5.5 Q30.6387 -5.5 30.1465 -5.0156 Q29.6543 -4.5312 29.6074 -3.7031 Z" style="stroke:none; clip-path:url(#clipPath12);"
    /></g
    ><g transform="matrix(1.3333,0,0,1.3333,119.4933,100.125)" style="fill:rgb(255,255,204); text-rendering:geometricPrecision; font-family:sans-serif; shape-rendering:crispEdges; stroke:rgb(255,255,204); stroke-width:2;"
    ><rect x="272" y="28" width="145" style="clip-path:url(#clipPath2); stroke:none;" height="46.1875"
      /><rect x="272" y="28" width="145" style="clip-path:url(#clipPath2); fill:none; stroke:black;" height="46.1875"
      /><rect x="399" y="34" width="12" style="clip-path:url(#clipPath2); stroke:none; stroke-width:1;" height="14"
      /><rect x="399" y="34" width="12" style="clip-path:url(#clipPath2); fill:none; stroke:black; stroke-width:1;" height="14"
      /><rect x="397" y="42" width="6" style="clip-path:url(#clipPath2); stroke:none; stroke-width:1;" height="3"
      /><rect x="397" y="42" width="6" style="clip-path:url(#clipPath2); fill:none; stroke:black; stroke-width:1;" height="3"
      /><rect x="397" y="37" width="6" style="clip-path:url(#clipPath2); stroke:none; stroke-width:1;" height="3"
      /><rect x="397" y="37" width="6" style="clip-path:url(#clipPath2); fill:none; stroke:black; stroke-width:1;" height="3"
    /></g
    ><g style="font-family:sans-serif; text-rendering:optimizeLegibility;" transform="matrix(1.3333,0,0,1.3333,119.4933,100.125) translate(302.5,45)"
    ><path d="M0.875 0 L0.875 -8.5938 L4.1094 -8.5938 Q5.0938 -8.5938 5.6875 -8.3281 Q6.2812 -8.0625 6.6172 -7.5234 Q6.9531 -6.9844 6.9531 -6.3906 Q6.9531 -5.8438 6.6562 -5.3594 Q6.3594 -4.875 5.75 -4.5781 Q6.5312 -4.3438 6.9453 -3.7891 Q7.3594 -3.2344 7.3594 -2.4844 Q7.3594 -1.8906 7.1094 -1.3672 Q6.8594 -0.8438 6.4844 -0.5625 Q6.1094 -0.2812 5.5391 -0.1406 Q4.9688 0 4.1562 0 L0.875 0 ZM2.0156 -4.9844 L3.875 -4.9844 Q4.625 -4.9844 4.9531 -5.0781 Q5.3906 -5.2031 5.6094 -5.5078 Q5.8281 -5.8125 5.8281 -6.2656 Q5.8281 -6.6875 5.625 -7.0156 Q5.4219 -7.3438 5.0391 -7.4609 Q4.6562 -7.5781 3.7344 -7.5781 L2.0156 -7.5781 L2.0156 -4.9844 ZM2.0156 -1.0156 L4.1562 -1.0156 Q4.7031 -1.0156 4.9219 -1.0625 Q5.3281 -1.125 5.5859 -1.2891 Q5.8438 -1.4531 6.0156 -1.7656 Q6.1875 -2.0781 6.1875 -2.4844 Q6.1875 -2.9688 5.9453 -3.3281 Q5.7031 -3.6875 5.2656 -3.8281 Q4.8281 -3.9688 4 -3.9688 L2.0156 -3.9688 L2.0156 -1.0156 ZM12.8633 -0.7656 Q12.2695 -0.2656 11.7305 -0.0625 Q11.1914 0.1406 10.5664 0.1406 Q9.5352 0.1406 8.9883 -0.3594 Q8.4414 -0.8594 8.4414 -1.6406 Q8.4414 -2.0938 8.6445 -2.4766 Q8.8477 -2.8594 9.1914 -3.0859 Q9.5352 -3.3125 9.957 -3.4219 Q10.2539 -3.5156 10.8945 -3.5938 Q12.1602 -3.7344 12.7695 -3.9531 Q12.7695 -4.1719 12.7695 -4.2188 Q12.7695 -4.875 12.4727 -5.1406 Q12.0664 -5.4844 11.2695 -5.4844 Q10.5352 -5.4844 10.1758 -5.2266 Q9.8164 -4.9688 9.6445 -4.3125 L8.6133 -4.4531 Q8.7539 -5.1094 9.082 -5.5156 Q9.4102 -5.9219 10.0195 -6.1406 Q10.6289 -6.3594 11.4258 -6.3594 Q12.2227 -6.3594 12.7227 -6.1719 Q13.2227 -5.9844 13.457 -5.7031 Q13.6914 -5.4219 13.7852 -4.9844 Q13.832 -4.7188 13.832 -4.0156 L13.832 -2.6094 Q13.832 -1.1406 13.9023 -0.75 Q13.9727 -0.3594 14.1758 0 L13.0664 0 Q12.9102 -0.3281 12.8633 -0.7656 ZM12.7695 -3.125 Q12.1914 -2.8906 11.0508 -2.7188 Q10.3945 -2.625 10.1289 -2.5078 Q9.8633 -2.3906 9.7148 -2.1719 Q9.5664 -1.9531 9.5664 -1.6719 Q9.5664 -1.25 9.8867 -0.9688 Q10.207 -0.6875 10.8164 -0.6875 Q11.4258 -0.6875 11.9023 -0.9531 Q12.3789 -1.2188 12.5977 -1.6875 Q12.7695 -2.0469 12.7695 -2.7344 L12.7695 -3.125 ZM15.0527 -1.8594 L16.084 -2.0156 Q16.1777 -1.3906 16.5762 -1.0625 Q16.9746 -0.7344 17.709 -0.7344 Q18.4277 -0.7344 18.7793 -1.0234 Q19.1309 -1.3125 19.1309 -1.7188 Q19.1309 -2.0781 18.8184 -2.2812 Q18.5996 -2.4219 17.7402 -2.6406 Q16.584 -2.9375 16.1387 -3.1484 Q15.6934 -3.3594 15.459 -3.7344 Q15.2246 -4.1094 15.2246 -4.5781 Q15.2246 -4.9844 15.4121 -5.3438 Q15.5996 -5.7031 15.9277 -5.9375 Q16.1777 -6.1094 16.5996 -6.2344 Q17.0215 -6.3594 17.5215 -6.3594 Q18.2402 -6.3594 18.7949 -6.1484 Q19.3496 -5.9375 19.6152 -5.5781 Q19.8809 -5.2188 19.9746 -4.625 L18.9434 -4.4844 Q18.8809 -4.9531 18.5449 -5.2266 Q18.209 -5.5 17.584 -5.5 Q16.8652 -5.5 16.5527 -5.2578 Q16.2402 -5.0156 16.2402 -4.6875 Q16.2402 -4.4844 16.3652 -4.3281 Q16.5059 -4.1562 16.7715 -4.0469 Q16.9277 -3.9844 17.709 -3.7812 Q18.834 -3.4688 19.2715 -3.2812 Q19.709 -3.0938 19.959 -2.7344 Q20.209 -2.375 20.209 -1.8281 Q20.209 -1.2969 19.9043 -0.8359 Q19.5996 -0.375 19.0215 -0.1172 Q18.4434 0.1406 17.709 0.1406 Q16.4902 0.1406 15.8574 -0.3672 Q15.2246 -0.875 15.0527 -1.8594 ZM25.7246 -2 L26.8184 -1.875 Q26.5684 -0.9219 25.8652 -0.3906 Q25.1621 0.1406 24.084 0.1406 Q22.7246 0.1406 21.9199 -0.7031 Q21.1152 -1.5469 21.1152 -3.0625 Q21.1152 -4.625 21.9277 -5.4922 Q22.7402 -6.3594 24.0215 -6.3594 Q25.2715 -6.3594 26.0605 -5.5156 Q26.8496 -4.6719 26.8496 -3.125 Q26.8496 -3.0312 26.8496 -2.8438 L22.209 -2.8438 Q22.2715 -1.8125 22.7871 -1.2734 Q23.3027 -0.7344 24.084 -0.7344 Q24.6621 -0.7344 25.0762 -1.0391 Q25.4902 -1.3438 25.7246 -2 ZM22.2715 -3.7031 L25.7402 -3.7031 Q25.6777 -4.5 25.3496 -4.8906 Q24.834 -5.5 24.0371 -5.5 Q23.3027 -5.5 22.8105 -5.0156 Q22.3184 -4.5312 22.2715 -3.7031 ZM35.5137 0 L35.5137 -0.7812 Q34.9199 0.1406 33.7793 0.1406 Q33.0293 0.1406 32.4043 -0.2734 Q31.7793 -0.6875 31.4355 -1.4219 Q31.0918 -2.1562 31.0918 -3.1094 Q31.0918 -4.0312 31.4043 -4.7969 Q31.7168 -5.5625 32.3418 -5.9609 Q32.9668 -6.3594 33.7324 -6.3594 Q34.2949 -6.3594 34.7324 -6.125 Q35.1699 -5.8906 35.4512 -5.5156 L35.4512 -8.5938 L36.498 -8.5938 L36.498 0 L35.5137 0 ZM32.1855 -3.1094 Q32.1855 -1.9062 32.6855 -1.3203 Q33.1855 -0.7344 33.873 -0.7344 Q34.5605 -0.7344 35.0449 -1.2969 Q35.5293 -1.8594 35.5293 -3.0156 Q35.5293 -4.2969 35.0371 -4.8906 Q34.5449 -5.4844 33.8262 -5.4844 Q33.123 -5.4844 32.6543 -4.9141 Q32.1855 -4.3438 32.1855 -3.1094 ZM42.4062 -2 L43.5 -1.875 Q43.25 -0.9219 42.5469 -0.3906 Q41.8438 0.1406 40.7656 0.1406 Q39.4062 0.1406 38.6016 -0.7031 Q37.7969 -1.5469 37.7969 -3.0625 Q37.7969 -4.625 38.6094 -5.4922 Q39.4219 -6.3594 40.7031 -6.3594 Q41.9531 -6.3594 42.7422 -5.5156 Q43.5312 -4.6719 43.5312 -3.125 Q43.5312 -3.0312 43.5312 -2.8438 L38.8906 -2.8438 Q38.9531 -1.8125 39.4688 -1.2734 Q39.9844 -0.7344 40.7656 -0.7344 Q41.3438 -0.7344 41.7578 -1.0391 Q42.1719 -1.3438 42.4062 -2 ZM38.9531 -3.7031 L42.4219 -3.7031 Q42.3594 -4.5 42.0312 -4.8906 Q41.5156 -5.5 40.7188 -5.5 Q39.9844 -5.5 39.4922 -5.0156 Q39 -4.5312 38.9531 -3.7031 ZM52.1953 0 L52.1953 -0.7812 Q51.6016 0.1406 50.4609 0.1406 Q49.7109 0.1406 49.0859 -0.2734 Q48.4609 -0.6875 48.1172 -1.4219 Q47.7734 -2.1562 47.7734 -3.1094 Q47.7734 -4.0312 48.0859 -4.7969 Q48.3984 -5.5625 49.0234 -5.9609 Q49.6484 -6.3594 50.4141 -6.3594 Q50.9766 -6.3594 51.4141 -6.125 Q51.8516 -5.8906 52.1328 -5.5156 L52.1328 -8.5938 L53.1797 -8.5938 L53.1797 0 L52.1953 0 ZM48.8672 -3.1094 Q48.8672 -1.9062 49.3672 -1.3203 Q49.8672 -0.7344 50.5547 -0.7344 Q51.2422 -0.7344 51.7266 -1.2969 Q52.2109 -1.8594 52.2109 -3.0156 Q52.2109 -4.2969 51.7188 -4.8906 Q51.2266 -5.4844 50.5078 -5.4844 Q49.8047 -5.4844 49.3359 -4.9141 Q48.8672 -4.3438 48.8672 -3.1094 ZM58.9004 -0.7656 Q58.3066 -0.2656 57.7676 -0.0625 Q57.2285 0.1406 56.6035 0.1406 Q55.5723 0.1406 55.0254 -0.3594 Q54.4785 -0.8594 54.4785 -1.6406 Q54.4785 -2.0938 54.6816 -2.4766 Q54.8848 -2.8594 55.2285 -3.0859 Q55.5723 -3.3125 55.9941 -3.4219 Q56.291 -3.5156 56.9316 -3.5938 Q58.1973 -3.7344 58.8066 -3.9531 Q58.8066 -4.1719 58.8066 -4.2188 Q58.8066 -4.875 58.5098 -5.1406 Q58.1035 -5.4844 57.3066 -5.4844 Q56.5723 -5.4844 56.2129 -5.2266 Q55.8535 -4.9688 55.6816 -4.3125 L54.6504 -4.4531 Q54.791 -5.1094 55.1191 -5.5156 Q55.4473 -5.9219 56.0566 -6.1406 Q56.666 -6.3594 57.4629 -6.3594 Q58.2598 -6.3594 58.7598 -6.1719 Q59.2598 -5.9844 59.4941 -5.7031 Q59.7285 -5.4219 59.8223 -4.9844 Q59.8691 -4.7188 59.8691 -4.0156 L59.8691 -2.6094 Q59.8691 -1.1406 59.9395 -0.75 Q60.0098 -0.3594 60.2129 0 L59.1035 0 Q58.9473 -0.3281 58.9004 -0.7656 ZM58.8066 -3.125 Q58.2285 -2.8906 57.0879 -2.7188 Q56.4316 -2.625 56.166 -2.5078 Q55.9004 -2.3906 55.752 -2.1719 Q55.6035 -1.9531 55.6035 -1.6719 Q55.6035 -1.25 55.9238 -0.9688 Q56.2441 -0.6875 56.8535 -0.6875 Q57.4629 -0.6875 57.9395 -0.9531 Q58.416 -1.2188 58.6348 -1.6875 Q58.8066 -2.0469 58.8066 -2.7344 L58.8066 -3.125 ZM65.543 0 L65.543 -0.7812 Q64.9492 0.1406 63.8086 0.1406 Q63.0586 0.1406 62.4336 -0.2734 Q61.8086 -0.6875 61.4648 -1.4219 Q61.1211 -2.1562 61.1211 -3.1094 Q61.1211 -4.0312 61.4336 -4.7969 Q61.7461 -5.5625 62.3711 -5.9609 Q62.9961 -6.3594 63.7617 -6.3594 Q64.3242 -6.3594 64.7617 -6.125 Q65.1992 -5.8906 65.4805 -5.5156 L65.4805 -8.5938 L66.5273 -8.5938 L66.5273 0 L65.543 0 ZM62.2148 -3.1094 Q62.2148 -1.9062 62.7148 -1.3203 Q63.2148 -0.7344 63.9023 -0.7344 Q64.5898 -0.7344 65.0742 -1.2969 Q65.5586 -1.8594 65.5586 -3.0156 Q65.5586 -4.2969 65.0664 -4.8906 Q64.5742 -5.4844 63.8555 -5.4844 Q63.1523 -5.4844 62.6836 -4.9141 Q62.2148 -4.3438 62.2148 -3.1094 ZM67.7949 -3.1094 Q67.7949 -4.8438 68.748 -5.6719 Q69.5449 -6.3594 70.7012 -6.3594 Q71.9824 -6.3594 72.8027 -5.5234 Q73.623 -4.6875 73.623 -3.2031 Q73.623 -2 73.2637 -1.3125 Q72.9043 -0.625 72.209 -0.2422 Q71.5137 0.1406 70.7012 0.1406 Q69.4043 0.1406 68.5996 -0.6953 Q67.7949 -1.5312 67.7949 -3.1094 ZM68.873 -3.1094 Q68.873 -1.9219 69.3965 -1.3281 Q69.9199 -0.7344 70.7012 -0.7344 Q71.498 -0.7344 72.0137 -1.3281 Q72.5293 -1.9219 72.5293 -3.1406 Q72.5293 -4.2969 72.0059 -4.8906 Q71.4824 -5.4844 70.7012 -5.4844 Q69.9199 -5.4844 69.3965 -4.8984 Q68.873 -4.3125 68.873 -3.1094 ZM74.4375 -1.8594 L75.4688 -2.0156 Q75.5625 -1.3906 75.9609 -1.0625 Q76.3594 -0.7344 77.0938 -0.7344 Q77.8125 -0.7344 78.1641 -1.0234 Q78.5156 -1.3125 78.5156 -1.7188 Q78.5156 -2.0781 78.2031 -2.2812 Q77.9844 -2.4219 77.125 -2.6406 Q75.9688 -2.9375 75.5234 -3.1484 Q75.0781 -3.3594 74.8438 -3.7344 Q74.6094 -4.1094 74.6094 -4.5781 Q74.6094 -4.9844 74.7969 -5.3438 Q74.9844 -5.7031 75.3125 -5.9375 Q75.5625 -6.1094 75.9844 -6.2344 Q76.4062 -6.3594 76.9062 -6.3594 Q77.625 -6.3594 78.1797 -6.1484 Q78.7344 -5.9375 79 -5.5781 Q79.2656 -5.2188 79.3594 -4.625 L78.3281 -4.4844 Q78.2656 -4.9531 77.9297 -5.2266 Q77.5938 -5.5 76.9688 -5.5 Q76.25 -5.5 75.9375 -5.2578 Q75.625 -5.0156 75.625 -4.6875 Q75.625 -4.4844 75.75 -4.3281 Q75.8906 -4.1562 76.1562 -4.0469 Q76.3125 -3.9844 77.0938 -3.7812 Q78.2188 -3.4688 78.6562 -3.2812 Q79.0938 -3.0938 79.3438 -2.7344 Q79.5938 -2.375 79.5938 -1.8281 Q79.5938 -1.2969 79.2891 -0.8359 Q78.9844 -0.375 78.4062 -0.1172 Q77.8281 0.1406 77.0938 0.1406 Q75.875 0.1406 75.2422 -0.3672 Q74.6094 -0.875 74.4375 -1.8594 Z" style="stroke:none; clip-path:url(#clipPath13);"
    /></g
    ><g style="font-family:sans-serif; text-rendering:optimizeLegibility;" transform="matrix(1.3333,0,0,1.3333,119.4933,100.125)"
    ><line x1="423.7199" x2="423.8196" y1="90.1875" style="fill:none; clip-path:url(#clipPath2);" y2="148"
    /></g
  ></g
></svg
>
